Most severe consequence	Call count
?	312,979
upstream_gene_variant	35,139
missense_variant	6,398
stop_gained	272
start_lost	6
5_prime_UTR_variant	2,258
splice_region_variant	553
splice_donor_variant	521
stop_lost	325
frameshift_variant	193
non_coding_transcript_exon_variant	20,499
synonymous_variant	8,721
intron_variant	991,379
3_prime_UTR_variant	10,490
splice_acceptor_variant	1,897
downstream_gene_variant	44,983
total	1,436,613
