HG00096	GBR	1			1
HG00097	GBR	1			1
HG00098	GBR	1			1
HG00099	GBR	1			1
HG00100	GBR	1			1
HG00101	GBR	1			1
HG00102	GBR	1			1
HG00103	GBR	1			1
HG00104	GBR	1			1
HG00105	GBR	1			1
HG00106	GBR	1			1
HG00107	GBR	1			1
HG00108	GBR	1			1
HG00109	GBR	1			1
HG00110	GBR	1			1
HG00111	GBR	1			1
HG00112	GBR	1			1
HG00113	GBR	1			1
HG00114	GBR	1			1
HG00115	GBR	1			1
HG00116	GBR	1			1
HG00117	GBR	1			1
HG00118	GBR	1			1
HG00119	GBR	1			1
HG00120	GBR	1			1
HG00121	GBR	1			1
HG00122	GBR	1			1
HG00123	GBR	1			1
HG00124	GBR	1			1
HG00125	GBR	1			1
HG00126	GBR	1			1
HG00127	GBR	1			1
HG00128	GBR	1			1
HG00129	GBR	1			1
HG00130	GBR	1			1
HG00131	GBR	1			1
HG00132	GBR	1			1
HG00133	GBR	1			1
HG00134	GBR	1			1
HG00135	GBR	1			1
HG00136	GBR	1			1
HG00137	GBR	1			1
HG00138	GBR	1			1
HG00139	GBR	1			1
HG00140	GBR	1			1
HG00141	GBR	1			1
HG00142	GBR	1			1
HG00143	GBR	1			1
HG00144	GBR				
HG00145	GBR	1			1
HG00146	GBR	1			1
HG00147	GBR				
HG00148	GBR	1			1
HG00149	GBR	1			1
HG00150	GBR	1			1
HG00151	GBR	1			1
HG00152	GBR	1			1
HG00153	GBR	1			1
HG00154	GBR	1			1
HG00155	GBR	1			1
HG00156	GBR	1			1
HG00157	GBR	1			1
HG00158	GBR	1			1
HG00159	GBR	1			1
HG00160	GBR	1			1
HG00171	FIN	1			1
HG00173	FIN	1			1
HG00174	FIN	1			1
HG00176	FIN	1			1
HG00177	FIN	1			1
HG00178	FIN	1			1
HG00179	FIN	1			1
HG00180	FIN	1			1
HG00181	FIN	1			1
HG00182	FIN	1			1
HG00183	FIN	1			1
HG00185	FIN	1			1
HG00186	FIN	1			1
HG00187	FIN	1			1
HG00188	FIN	1			1
HG00189	FIN	1			1
HG00190	FIN	1			1
HG00231	GBR	1			1
HG00232	GBR	1			1
HG00233	GBR	1			1
HG00234	GBR	1			1
HG00235	GBR	1			1
HG00236	GBR	1			1
HG00237	GBR	1			1
HG00238	GBR	1			1
HG00239	GBR	1			1
HG00240	GBR	1			1
HG00242	GBR	1			1
HG00243	GBR	1			1
HG00244	GBR	1			1
HG00245	GBR	1			1
HG00246	GBR	1			1
HG00247	GBR	1			1
HG00248	GBR				
HG00249	GBR	1			1
HG00250	GBR	1			1
HG00251	GBR	1			1
HG00252	GBR	1			1
HG00253	GBR	1			1
HG00254	GBR	1			1
HG00255	GBR	1			1
HG00256	GBR	1			1
HG00257	GBR	1			1
HG00258	GBR	1			1
HG00259	GBR	1			1
HG00260	GBR	1			1
HG00261	GBR	1			1
HG00262	GBR	1			
HG00263	GBR	1			1
HG00264	GBR	1			1
HG00265	GBR	1			1
HG00266	FIN	1			1
HG00267	FIN	1			1
HG00268	FIN	1			1
HG00269	FIN	1			1
HG00270	FIN	1			1
HG00271	FIN	1			1
HG00272	FIN	1			1
HG00273	FIN	1			1
HG00274	FIN	1			1
HG00275	FIN	1			1
HG00276	FIN	1			1
HG00277	FIN	1			1
HG00278	FIN	1			1
HG00280	FIN	1			1
HG00281	FIN	1			1
HG00282	FIN	1			1
HG00284	FIN	1			1
HG00285	FIN	1			1
HG00288	FIN			1	
HG00290	FIN			1	
HG00302	FIN			1	
HG00303	FIN			1	
HG00304	FIN			1	
HG00306	FIN	1			1
HG00308	FIN	1			1
HG00309	FIN	1			1
HG00310	FIN	1			1
HG00311	FIN	1			1
HG00312	FIN	1			1
HG00313	FIN	1			1
HG00315	FIN	1			1
HG00318	FIN	1			1
HG00319	FIN	1			1
HG00320	FIN	1			1
HG00321	FIN	1			1
HG00323	FIN	1			1
HG00324	FIN	1			1
HG00325	FIN	1			1
HG00326	FIN	1			1
HG00327	FIN	1			1
HG00328	FIN	1			1
HG00329	FIN	1			1
HG00330	FIN	1			1
HG00331	FIN	1			1
HG00332	FIN	1			1
HG00334	FIN	1			1
HG00335	FIN	1			1
HG00336	FIN	1			1
HG00337	FIN	1			1
HG00338	FIN	1			1
HG00339	FIN	1			1
HG00341	FIN	1			1
HG00342	FIN	1			1
HG00343	FIN	1			1
HG00344	FIN	1			1
HG00345	FIN	1			1
HG00346	FIN	1			1
HG00349	FIN	1			1
HG00350	FIN	1			1
HG00351	FIN	1			1
HG00353	FIN	1			1
HG00355	FIN	1			1
HG00356	FIN	1			1
HG00357	FIN	1			1
HG00358	FIN	1			1
HG00359	FIN	1			1
HG00360	FIN	1			1
HG00361	FIN	1			1
HG00362	FIN	1			1
HG00364	FIN	1			1
HG00365	FIN	1			1
HG00366	FIN	1			1
HG00367	FIN	1			1
HG00368	FIN	1			1
HG00369	FIN	1			1
HG00371	FIN	1			1
HG00372	FIN	1			1
HG00373	FIN	1			1
HG00375	FIN	1			1
HG00376	FIN	1			1
HG00377	FIN	1			1
HG00378	FIN	1			1
HG00379	FIN	1			1
HG00380	FIN	1			1
HG00381	FIN	1			1
HG00382	FIN	1			1
HG00383	FIN	1			1
HG00384	FIN	1			1
HG00403	CHS	1			1
HG00404	CHS	1			1
HG00405	CHS	1			1
HG00406	CHS	1			1
HG00407	CHS	1			1
HG00408	CHS	1			1
HG00409	CHS			1	
HG00410	CHS			1	
HG00411	CHS				
HG00418	CHS	1			1
HG00419	CHS	1			1
HG00420	CHS	1			1
HG00421	CHS	1			1
HG00422	CHS	1			1
HG00423	CHS	1			1
HG00427	CHS	1			1
HG00428	CHS	1			1
HG00429	CHS	1			1
HG00436	CHS	1			1
HG00437	CHS	1			1
HG00438	CHS	1			1
HG00442	CHS	1			1
HG00443	CHS	1			1
HG00444	CHS	1			1
HG00445	CHS	1			1
HG00446	CHS	1			1
HG00447	CHS	1			1
HG00448	CHS	1			1
HG00449	CHS	1			1
HG00450	CHS	1			1
HG00451	CHS	1			1
HG00452	CHS	1			1
HG00453	CHS	1			1
HG00457	CHS	1			1
HG00458	CHS	1			1
HG00459	CHS	1			1
HG00463	CHS	1			1
HG00464	CHS	1			1
HG00465	CHS	1			1
HG00472	CHS	1			1
HG00473	CHS	1			1
HG00474	CHS	1			1
HG00475	CHS	1			1
HG00476	CHS	1			1
HG00477	CHS	1			1
HG00478	CHS	1			1
HG00479	CHS	1			1
HG00480	CHS	1			1
HG00500	CHS	1			1
HG00501	CHS	1			1
HG00502	CHS	1			1
HG00512	CHS	1			1
HG00513	CHS	1			1
HG00514	CHS	1			1
HG00524	CHS	1			1
HG00525	CHS	1			1
HG00526	CHS	1			1
HG00530	CHS	1			1
HG00531	CHS	1			1
HG00532	CHS	1			1
HG00533	CHS	1			
HG00534	CHS	1			1
HG00535	CHS	1			1
HG00536	CHS	1			1
HG00537	CHS	1			1
HG00538	CHS	1			1
HG00542	CHS	1			1
HG00543	CHS	1			1
HG00544	CHS	1			1
HG00551	PUR	1			1
HG00552	PUR	1			1
HG00553	PUR	1			1
HG00554	PUR	1			1
HG00555	PUR	1			1
HG00556	CHS	1			1
HG00557	CHS	1			1
HG00558	CHS	1			1
HG00559	CHS	1			1
HG00560	CHS	1			1
HG00561	CHS	1			1
HG00565	CHS	1			1
HG00566	CHS	1			1
HG00567	CHS	1			1
HG00577	CHS	1			1
HG00578	CHS	1			1
HG00579	CHS	1			1
HG00580	CHS	1			1
HG00581	CHS	1			1
HG00582	CHS	1			1
HG00583	CHS	1			1
HG00584	CHS	1			1
HG00585	CHS	1			1
HG00589	CHS	1			1
HG00590	CHS	1			1
HG00591	CHS	1			1
HG00592	CHS	1			1
HG00593	CHS	1			1
HG00594	CHS	1			1
HG00595	CHS	1			1
HG00596	CHS	1			1
HG00597	CHS	1			1
HG00598	CHS			1	
HG00599	CHS			1	
HG00600	CHS				
HG00607	CHS	1			1
HG00608	CHS	1			1
HG00609	CHS	1			1
HG00610	CHS	1			1
HG00611	CHS	1			1
HG00612	CHS	1			1
HG00613	CHS	1			1
HG00614	CHS	1			1
HG00615	CHS	1			1
HG00619	CHS	1			1
HG00620	CHS	1			1
HG00621	CHS	1			1
HG00622	CHS			1	
HG00623	CHS			1	
HG00624	CHS				
HG00625	CHS	1			1
HG00626	CHS	1			1
HG00627	CHS	1			1
HG00628	CHS	1			1
HG00629	CHS	1			1
HG00630	CHS	1			1
HG00631	CHS			1	
HG00632	CHS			1	
HG00633	CHS				
HG00634	CHS	1			1
HG00635	CHS	1			1
HG00636	CHS	1			1
HG00637	PUR	1			1
HG00638	PUR	1			1
HG00639	PUR	1			1
HG00640	PUR	1			1
HG00641	PUR	1			1
HG00642	PUR	1			1
HG00650	CHS	1			1
HG00651	CHS	1			1
HG00652	CHS	1			1
HG00653	CHS	1			1
HG00654	CHS	1			1
HG00655	CHS	1			1
HG00656	CHS	1			1
HG00657	CHS	1			1
HG00658	CHS	1			1
HG00662	CHS	1			1
HG00663	CHS	1			1
HG00664	CHS	1			1
HG00671	CHS	1			1
HG00672	CHS	1			1
HG00673	CHS	1			1
HG00674	CHS			1	
HG00675	CHS			1	
HG00676	CHS				
HG00683	CHS	1			1
HG00684	CHS	1			1
HG00685	CHS	1			1
HG00689	CHS	1			1
HG00690	CHS	1			1
HG00691	CHS	1			1
HG00692	CHS	1			1
HG00693	CHS	1			1
HG00694	CHS	1			1
HG00698	CHS	1			1
HG00699	CHS	1			1
HG00700	CHS	1			1
HG00701	CHS	1			1
HG00702	CHS	1			1
HG00703	CHS	1			1
HG00704	CHS	1			1
HG00705	CHS	1			1
HG00706	CHS	1			1
HG00707	CHS	1			1
HG00708	CHS	1			1
HG00709	CHS	1			1
HG00716	CHS				
HG00717	CHS				
HG00718	CHS				
HG00728	CHS			1	
HG00729	CHS			1	
HG00730	CHS				
HG00731	PUR	1			1
HG00732	PUR	1			1
HG00733	PUR	1			1
HG00734	PUR	1			1
HG00735	PUR	1			1
HG00736	PUR	1			1
HG00737	PUR	1			1
HG00738	PUR	1			1
HG00739	PUR	1			1
HG00740	PUR	1			1
HG00741	PUR	1			1
HG00742	PUR			1	
HG00743	PUR			1	
HG00759	CDX	1			1
HG00766	CDX	1			1
HG00844	CDX	1			1
HG00851	CDX	1			1
HG00864	CDX	1			1
HG00866	CDX	1			1
HG00867	CDX	1			1
HG00879	CDX	1			1
HG00881	CDX	1			1
HG00956	CDX	1			1
HG00978	CDX	1			1
HG00982	CDX	1			1
HG00983	CDX	1			1
HG01028	CDX	1			1
HG01029	CDX	1			1
HG01031	CDX	1			1
HG01046	CDX	1			1
HG01047	PUR	1			1
HG01048	PUR	1			1
HG01049	PUR	1			1
HG01050	PUR	1			1
HG01051	PUR	1			1
HG01052	PUR	1			1
HG01053	PUR	1			1
HG01054	PUR	1			1
HG01055	PUR	1			1
HG01056	PUR	1			1
HG01058	PUR			1	
HG01060	PUR	1			1
HG01061	PUR	1			1
HG01062	PUR	1			1
HG01063	PUR			1	
HG01064	PUR			1	
HG01066	PUR	1			1
HG01067	PUR	1			1
HG01068	PUR	1			1
HG01069	PUR	1			1
HG01070	PUR	1			1
HG01071	PUR	1			1
HG01072	PUR	1			1
HG01073	PUR	1			1
HG01074	PUR	1			1
HG01075	PUR	1			1
HG01077	PUR			1	
HG01079	PUR	1			1
HG01080	PUR	1			1
HG01081	PUR	1			1
HG01082	PUR	1			1
HG01083	PUR	1			1
HG01084	PUR	1			1
HG01085	PUR	1			1
HG01086	PUR	1			1
HG01087	PUR	1			1
HG01088	PUR			1	
HG01089	PUR			1	
HG01090	PUR				
HG01092	PUR			1	
HG01094	PUR	1			1
HG01095	PUR	1			1
HG01096	PUR	1			1
HG01097	PUR	1			1
HG01098	PUR	1			1
HG01099	PUR	1			1
HG01100	PUR	1			1
HG01101	PUR	1			1
HG01102	PUR	1			1
HG01103	PUR	1			1
HG01104	PUR	1			1
HG01105	PUR	1			1
HG01106	PUR	1			1
HG01107	PUR	1			1
HG01108	PUR	1			1
HG01109	PUR	1			1
HG01110	PUR	1			1
HG01111	PUR	1			1
HG01112	CLM	1			1
HG01113	CLM	1			1
HG01114	CLM	1			1
HG01119	CLM			1	
HG01121	CLM			1	
HG01122	CLM			1	
HG01123	CLM				
HG01124	CLM	1			1
HG01125	CLM	1			1
HG01126	CLM	1			1
HG01130	CLM			1	
HG01131	CLM			1	
HG01133	CLM	1			1
HG01134	CLM	1			1
HG01135	CLM	1			1
HG01136	CLM	1			1
HG01137	CLM	1			1
HG01138	CLM	1			1
HG01139	CLM	1			1
HG01140	CLM	1			1
HG01141	CLM	1			1
HG01142	CLM			1	
HG01148	CLM	1			1
HG01149	CLM	1			1
HG01150	CLM	1			1
HG01161	PUR			1	
HG01162	PUR			1	
HG01164	PUR			1	
HG01167	PUR	1			1
HG01168	PUR	1			1
HG01169	PUR	1			1
HG01170	PUR	1			1
HG01171	PUR	1			1
HG01172	PUR	1			1
HG01173	PUR	1			1
HG01174	PUR	1			1
HG01175	PUR	1			1
HG01176	PUR	1			1
HG01177	PUR	1			1
HG01178	PUR	1			1
HG01182	PUR	1			1
HG01183	PUR	1			1
HG01184	PUR	1			1
HG01187	PUR	1			1
HG01188	PUR	1			1
HG01189	PUR	1			1
HG01190	PUR	1			1
HG01191	PUR	1			1
HG01192	PUR	1			1
HG01195	PUR			1	
HG01197	PUR	1			1
HG01198	PUR	1			1
HG01199	PUR	1			1
HG01200	PUR			1	
HG01204	PUR	1			1
HG01205	PUR	1			
HG01206	PUR	1			1
HG01241	PUR	1			
HG01242	PUR	1			1
HG01243	PUR	1			1
HG01247	PUR	1			1
HG01248	PUR	1			1
HG01249	PUR	1			1
HG01250	CLM	1			1
HG01251	CLM	1			1
HG01252	CLM	1			1
HG01253	CLM	1			1
HG01254	CLM	1			1
HG01255	CLM	1			1
HG01256	CLM	1			1
HG01257	CLM	1			1
HG01258	CLM	1			1
HG01259	CLM	1			1
HG01260	CLM	1			1
HG01261	CLM	1			1
HG01269	CLM			1	
HG01271	CLM	1			1
HG01272	CLM	1			1
HG01273	CLM	1			1
HG01274	CLM	1			1
HG01275	CLM	1			1
HG01276	CLM	1			1
HG01277	CLM	1			1
HG01278	CLM	1			1
HG01279	CLM	1			1
HG01280	CLM			1	
HG01281	CLM			1	
HG01284	CLM			1	
HG01286	PUR			1	
HG01301	PUR				
HG01302	PUR			1	
HG01303	PUR			1	
HG01305	PUR			1	
HG01308	PUR			1	
HG01311	PUR			1	
HG01312	PUR			1	
HG01322	PUR			1	
HG01323	PUR			1	
HG01324	PUR				
HG01325	PUR			1	
HG01326	PUR			1	
HG01327	PUR				
HG01334	GBR	1			1
HG01341	CLM	1			1
HG01342	CLM	1			1
HG01343	CLM	1			1
HG01344	CLM	1			1
HG01345	CLM	1			1
HG01346	CLM	1			1
HG01347	CLM	1			1
HG01348	CLM	1			1
HG01349	CLM	1			1
HG01350	CLM	1			1
HG01351	CLM	1			1
HG01352	CLM	1			1
HG01353	CLM	1			1
HG01354	CLM	1			1
HG01355	CLM	1			1
HG01356	CLM	1			1
HG01357	CLM	1			1
HG01358	CLM	1			1
HG01359	CLM	1			1
HG01360	CLM	1			1
HG01361	CLM	1			1
HG01362	CLM			1	
HG01363	CLM			1	
HG01364	CLM				
HG01365	CLM	1			1
HG01366	CLM	1			1
HG01367	CLM	1			1
HG01369	CLM			1	
HG01372	CLM			1	
HG01374	CLM	1			1
HG01375	CLM	1			1
HG01376	CLM	1			1
HG01377	CLM	1			1
HG01378	CLM	1			1
HG01379	CLM	1			1
HG01383	CLM	1			1
HG01384	CLM	1			1
HG01385	CLM	1			1
HG01389	CLM	1			1
HG01390	CLM	1			1
HG01391	CLM	1			1
HG01392	PUR			1	
HG01393	PUR			1	
HG01394	PUR				
HG01395	PUR			1	
HG01396	PUR			1	
HG01397	PUR				
HG01398	PUR			1	
HG01402	PUR			1	
HG01403	PUR			1	
HG01404	PUR				
HG01405	PUR			1	
HG01411	PUR				
HG01412	PUR			1	
HG01413	PUR			1	
HG01414	PUR			1	
HG01415	PUR				
HG01431	CLM			1	
HG01432	CLM			1	
HG01433	CLM				
HG01435	CLM			1	
HG01437	CLM	1			1
HG01438	CLM	1			1
HG01439	CLM	1			1
HG01440	CLM	1			1
HG01441	CLM	1			1
HG01442	CLM	1			1
HG01443	CLM			1	
HG01444	CLM			1	
HG01445	CLM				
HG01447	CLM			1	
HG01452	CLM			1	
HG01453	CLM			1	
HG01454	CLM				
HG01455	CLM	1			1
HG01456	CLM	1			1
HG01457	CLM	1			1
HG01459	CLM			1	
HG01461	CLM	1			1
HG01462	CLM	1			1
HG01463	CLM	1			1
HG01464	CLM	1			1
HG01465	CLM	1			1
HG01466	CLM	1			1
HG01468	CLM			1	
HG01471	CLM			1	
HG01473	CLM			1	
HG01474	CLM			1	
HG01477	CLM			1	
HG01479	CLM			1	
HG01480	CLM			1	
HG01481	CLM				
HG01482	CLM			1	
HG01483	CLM			1	
HG01484	CLM				
HG01485	CLM			1	
HG01486	CLM			1	
HG01487	CLM				
HG01488	CLM	1			1
HG01489	CLM	1			1
HG01490	CLM	1			1
HG01491	CLM	1			1
HG01492	CLM	1			1
HG01493	CLM	1			1
HG01494	CLM	1			1
HG01495	CLM	1			1
HG01496	CLM	1			1
HG01497	CLM	1			1
HG01498	CLM	1			1
HG01499	CLM	1			1
HG01500	IBS	1			1
HG01501	IBS	1			1
HG01502	IBS	1			1
HG01503	IBS	1			1
HG01504	IBS	1			1
HG01505	IBS	1			1
HG01506	IBS	1			1
HG01507	IBS	1			1
HG01508	IBS	1			1
HG01509	IBS	1			1
HG01510	IBS	1			1
HG01511	IBS	1			1
HG01512	IBS	1			1
HG01513	IBS	1			1
HG01514	IBS	1			1
HG01515	IBS	1			1
HG01516	IBS	1			1
HG01517	IBS	1			1
HG01518	IBS	1			1
HG01519	IBS	1			1
HG01520	IBS	1			1
HG01521	IBS	1			1
HG01522	IBS	1			1
HG01523	IBS	1			1
HG01524	IBS	1			1
HG01525	IBS	1			1
HG01526	IBS	1			1
HG01527	IBS	1			1
HG01528	IBS	1			1
HG01529	IBS	1			1
HG01530	IBS	1			1
HG01531	IBS	1			1
HG01532	IBS	1			1
HG01536	IBS	1			1
HG01537	IBS	1			1
HG01538	IBS	1			1
HG01550	CLM	1			1
HG01551	CLM	1			1
HG01552	CLM	1			1
HG01556	CLM			1	
HG01565	PEL	1			1
HG01566	PEL	1			1
HG01567	PEL	1			1
HG01571	PEL	1			1
HG01572	PEL	1			1
HG01573	PEL	1			1
HG01577	PEL	1			1
HG01578	PEL	1			1
HG01579	PEL	1			1
HG01583	PJL			1	
HG01586	PJL			1	
HG01589	PJL			1	
HG01590	PJL			1	
HG01593	PJL			1	
HG01594	PJL			1	
HG01595	KHV	1			1
HG01596	KHV	1			1
HG01597	KHV	1			1
HG01598	KHV	1			1
HG01599	KHV	1			1
HG01600	KHV	1			1
HG01601	IBS	1			1
HG01602	IBS	1			1
HG01603	IBS	1			1
HG01604	IBS	1			1
HG01605	IBS	1			1
HG01606	IBS	1			1
HG01607	IBS	1			1
HG01608	IBS	1			1
HG01609	IBS	1			1
HG01610	IBS	1			1
HG01611	IBS	1			1
HG01612	IBS	1			1
HG01613	IBS	1			1
HG01614	IBS	1			1
HG01615	IBS	1			1
HG01616	IBS	1			1
HG01617	IBS	1			1
HG01618	IBS	1			1
HG01619	IBS	1			1
HG01620	IBS	1			1
HG01621	IBS	1			1
HG01622	IBS	1			1
HG01623	IBS	1			1
HG01624	IBS	1			1
HG01625	IBS	1			1
HG01626	IBS	1			1
HG01627	IBS	1			1
HG01628	IBS	1			1
HG01629	IBS	1			1
HG01630	IBS	1			1
HG01631	IBS	1			1
HG01632	IBS	1			1
HG01633	IBS	1			1
HG01667	IBS	1			1
HG01668	IBS	1			1
HG01669	IBS	1			1
HG01670	IBS	1			1
HG01671	IBS	1			1
HG01672	IBS	1			1
HG01673	IBS	1			1
HG01674	IBS	1			1
HG01675	IBS	1			1
HG01676	IBS	1			1
HG01677	IBS	1			1
HG01678	IBS	1			1
HG01679	IBS	1			1
HG01680	IBS	1			1
HG01681	IBS	1			1
HG01682	IBS	1			1
HG01683	IBS	1			1
HG01684	IBS	1			1
HG01685	IBS	1			1
HG01686	IBS	1			1
HG01687	IBS	1			1
HG01694	IBS	1			1
HG01695	IBS	1			1
HG01696	IBS	1			1
HG01697	IBS	1			1
HG01698	IBS	1			1
HG01699	IBS	1			1
HG01700	IBS	1			1
HG01701	IBS	1			1
HG01702	IBS	1			1
HG01703	IBS	1			1
HG01704	IBS	1			1
HG01705	IBS	1			1
HG01706	IBS	1			1
HG01707	IBS	1			1
HG01708	IBS	1			1
HG01709	IBS	1			1
HG01710	IBS	1			1
HG01711	IBS	1			1
HG01746	IBS	1			1
HG01747	IBS	1			1
HG01748	IBS	1			1
HG01755	IBS	1			1
HG01756	IBS	1			1
HG01757	IBS	1			1
HG01761	IBS	1			1
HG01762	IBS	1			1
HG01763	IBS	1			1
HG01764	IBS			1	
HG01765	IBS			1	
HG01766	IBS			1	
HG01767	IBS			1	
HG01768	IBS			1	
HG01769	IBS			1	
HG01770	IBS	1			1
HG01771	IBS	1			1
HG01772	IBS	1			1
HG01773	IBS	1			1
HG01774	IBS	1			1
HG01775	IBS	1			1
HG01776	IBS	1			1
HG01777	IBS	1			1
HG01778	IBS	1			1
HG01779	IBS	1			1
HG01780	IBS	1			1
HG01781	IBS	1			1
HG01782	IBS	1			1
HG01783	IBS	1			1
HG01784	IBS	1			1
HG01785	IBS			1	
HG01786	IBS			1	
HG01787	IBS			1	
HG01789	GBR	1			1
HG01790	GBR	1			1
HG01791	GBR	1			1
HG01794	CDX	1			1
HG01795	CDX	1			1
HG01796	CDX	1			1
HG01797	CDX	1			1
HG01798	CDX	1			1
HG01799	CDX	1			1
HG01800	CDX	1			1
HG01801	CDX	1			1
HG01802	CDX	1			1
HG01804	CDX	1			1
HG01805	CDX	1			1
HG01806	CDX	1			1
HG01807	CDX	1			1
HG01808	CDX	1			1
HG01809	CDX	1			1
HG01810	CDX	1			1
HG01811	CDX	1			1
HG01812	CDX	1			1
HG01813	CDX	1			1
HG01815	CDX	1			1
HG01816	CDX	1			1
HG01817	CDX	1			1
HG01840	KHV	1			1
HG01841	KHV	1			1
HG01842	KHV	1			1
HG01843	KHV	1			1
HG01844	KHV	1			1
HG01845	KHV	1			1
HG01846	KHV	1			1
HG01847	KHV	1			1
HG01848	KHV	1			1
HG01849	KHV	1			1
HG01850	KHV	1			1
HG01851	KHV	1			1
HG01852	KHV	1			1
HG01853	KHV	1			1
HG01855	KHV	1			1
HG01857	KHV	1			1
HG01858	KHV	1			1
HG01859	KHV	1			1
HG01860	KHV	1			1
HG01861	KHV	1			1
HG01862	KHV	1			1
HG01863	KHV	1			1
HG01864	KHV	1			1
HG01865	KHV	1			1
HG01866	KHV	1			1
HG01867	KHV	1			1
HG01868	KHV	1			1
HG01869	KHV	1			1
HG01870	KHV	1			1
HG01871	KHV	1			1
HG01872	KHV	1			1
HG01873	KHV	1			1
HG01874	KHV	1			1
HG01878	KHV	1			1
HG01879	ACB	1			1
HG01880	ACB	1			1
HG01881	ACB	1			1
HG01882	ACB	1			1
HG01883	ACB	1			1
HG01884	ACB	1			1
HG01885	ACB	1			1
HG01886	ACB	1			1
HG01887	ACB	1			1
HG01888	ACB	1			1
HG01889	ACB	1			1
HG01890	ACB	1			1
HG01891	ACB	1			1
HG01892	PEL	1			1
HG01893	PEL	1			1
HG01894	ACB	1			1
HG01895	ACB	1			1
HG01896	ACB	1			1
HG01897	ACB	1			1
HG01898	PEL	1			1
HG01912	ACB	1			1
HG01914	ACB	1			1
HG01915	ACB	1			1
HG01916	ACB	1			1
HG01917	PEL	1			1
HG01918	PEL	1			1
HG01919	PEL	1			1
HG01920	PEL	1			1
HG01921	PEL	1			1
HG01922	PEL	1			1
HG01923	PEL	1			1
HG01924	PEL	1			1
HG01925	PEL	1			1
HG01926	PEL	1			1
HG01927	PEL	1			1
HG01928	PEL	1			1
HG01932	PEL	1			1
HG01933	PEL	1			1
HG01934	PEL	1			1
HG01935	PEL	1			1
HG01936	PEL	1			1
HG01937	PEL	1			1
HG01938	PEL	1			1
HG01939	PEL	1			1
HG01940	PEL	1			1
HG01941	PEL	1			1
HG01942	PEL	1			1
HG01943	PEL	1			1
HG01944	PEL	1			1
HG01945	PEL	1			1
HG01946	PEL	1			1
HG01947	PEL	1			1
HG01948	PEL	1			1
HG01949	PEL	1			1
HG01950	PEL	1			1
HG01951	PEL	1			1
HG01952	PEL	1			1
HG01953	PEL	1			1
HG01954	PEL	1			1
HG01955	PEL	1			1
HG01956	ACB	1			1
HG01958	ACB	1			1
HG01959	ACB	1			1
HG01960	ACB	1			1
HG01961	PEL			1	
HG01965	PEL			1	
HG01967	PEL	1			1
HG01968	PEL	1			1
HG01969	PEL	1			1
HG01970	PEL	1			1
HG01971	PEL	1			1
HG01972	PEL	1			1
HG01973	PEL	1			1
HG01974	PEL	1			1
HG01975	PEL	1			1
HG01976	PEL	1			1
HG01977	PEL	1			1
HG01978	PEL	1			1
HG01979	PEL	1			1
HG01980	PEL	1			1
HG01981	PEL	1			1
HG01982	PEL	1		1	1
HG01983	PEL	1		1	1
HG01984	PEL	1			1
HG01985	ACB	1			1
HG01986	ACB	1			1
HG01987	ACB	1			1
HG01988	ACB	1			1
HG01989	ACB	1			1
HG01990	ACB	1			1
HG01991	PEL	1			1
HG01992	PEL	1			1
HG01993	PEL	1			1
HG01995	PEL			1	
HG01997	PEL	1			1
HG01998	PEL	1			1
HG02002	PEL	1			1
HG02003	PEL	1			1
HG02004	PEL	1			1
HG02006	PEL			1	
HG02008	PEL	1			1
HG02009	ACB	1			1
HG02010	ACB	1			1
HG02011	ACB	1			1
HG02012	ACB	1			1
HG02013	ACB	1			1
HG02014	ACB	1			1
HG02015	KHV	1			1
HG02016	KHV	1			1
HG02017	KHV	1			1
HG02018	KHV	1			1
HG02019	KHV	1			1
HG02020	KHV	1			1
HG02021	KHV	1			1
HG02023	KHV	1			
HG02024	KHV	1			1
HG02025	KHV	1			1
HG02026	KHV	1			1
HG02027	KHV	1			1
HG02028	KHV	1			1
HG02029	KHV	1			1
HG02030	KHV	1			1
HG02031	KHV	1			1
HG02032	KHV	1			1
HG02035	KHV	1			1
HG02040	KHV	1			1
HG02046	KHV	1			1
HG02047	KHV	1			1
HG02048	KHV	1			1
HG02049	KHV	1			1
HG02050	KHV	1			1
HG02051	ACB	1			1
HG02052	ACB	1			1
HG02053	ACB	1			1
HG02054	ACB	1			
HG02055	ACB	1			1
HG02056	KHV	1			1
HG02057	KHV	1			1
HG02058	KHV	1			1
HG02059	KHV	1			1
HG02060	KHV	1			1
HG02061	KHV	1			1
HG02064	KHV	1			1
HG02067	KHV	1			1
HG02068	KHV	1			1
HG02069	KHV	1			1
HG02070	KHV	1			1
HG02071	KHV	1			1
HG02072	KHV	1			1
HG02073	KHV	1			1
HG02074	KHV	1			1
HG02075	KHV	1			1
HG02076	KHV	1			1
HG02077	KHV	1			1
HG02078	KHV	1			1
HG02079	KHV	1			1
HG02080	KHV	1			1
HG02081	KHV	1			1
HG02082	KHV	1			1
HG02083	KHV	1			1
HG02084	KHV	1			1
HG02085	KHV	1			1
HG02086	KHV	1			1
HG02087	KHV	1			1
HG02088	KHV	1			1
HG02089	PEL	1			1
HG02090	PEL	1			1
HG02091	PEL	1			1
HG02095	ACB	1			1
HG02102	PEL			1	
HG02104	PEL	1			1
HG02105	PEL	1			1
HG02106	PEL	1			1
HG02107	ACB	1			1
HG02108	ACB	1			1
HG02111	ACB	1			1
HG02113	KHV	1			1
HG02116	KHV	1			1
HG02120	KHV	1			1
HG02121	KHV	1			1
HG02122	KHV	1			1
HG02126	KHV	1			1
HG02127	KHV	1			1
HG02128	KHV	1			1
HG02129	KHV	1			1
HG02130	KHV	1			1
HG02131	KHV	1			1
HG02132	KHV	1			1
HG02133	KHV	1			1
HG02134	KHV	1			1
HG02135	KHV	1			1
HG02136	KHV	1			1
HG02137	KHV	1			1
HG02138	KHV	1			1
HG02139	KHV	1			1
HG02140	KHV	1			1
HG02141	KHV	1			1
HG02142	KHV	1			1
HG02143	ACB	1			1
HG02144	ACB	1			1
HG02145	ACB	1			1
HG02146	PEL	1			1
HG02147	PEL	1			1
HG02148	PEL	1			1
HG02150	PEL			1	
HG02151	CDX	1			1
HG02152	CDX	1			1
HG02153	CDX	1			1
HG02154	CDX	1			1
HG02155	CDX	1			1
HG02156	CDX	1			1
HG02164	CDX	1			1
HG02165	CDX	1			1
HG02166	CDX	1			1
HG02168	CDX			1	
HG02169	CDX			1	
HG02170	CDX			1	
HG02173	CDX			1	
HG02176	CDX			1	
HG02178	CDX	1			1
HG02179	CDX	1			1
HG02180	CDX	1			1
HG02181	CDX	1			1
HG02182	CDX	1			1
HG02184	CDX	1			1
HG02185	CDX	1			1
HG02186	CDX	1			1
HG02187	CDX	1			1
HG02188	CDX	1			1
HG02189	CDX	1			1
HG02190	CDX	1			1
HG02215	GBR	1			1
HG02217	IBS			1	
HG02218	IBS			1	
HG02219	IBS			1	
HG02220	IBS	1			1
HG02221	IBS	1			1
HG02222	IBS	1			1
HG02223	IBS	1			1
HG02224	IBS	1			1
HG02225	IBS	1			1
HG02229	IBS	1			1
HG02230	IBS	1			1
HG02231	IBS	1			1
HG02232	IBS	1			1
HG02233	IBS	1			1
HG02234	IBS	1			1
HG02235	IBS	1			1
HG02236	IBS	1			1
HG02237	IBS	1			1
HG02238	IBS	1			1
HG02239	IBS	1			1
HG02240	IBS	1			1
HG02250	CDX	1			1
HG02252	PEL			1	
HG02253	PEL			1	
HG02254	PEL				
HG02255	ACB	1			1
HG02256	ACB	1			1
HG02257	ACB	1			1
HG02258	ACB	1			1
HG02259	PEL	1			1
HG02260	PEL	1			1
HG02261	PEL	1			1
HG02262	PEL			1	
HG02265	PEL			1	
HG02266	PEL			1	
HG02267	PEL				
HG02271	PEL	1			1
HG02272	PEL	1			1
HG02273	PEL	1			1
HG02274	PEL			1	
HG02275	PEL			1	
HG02276	PEL				
HG02277	PEL	1			1
HG02278	PEL	1			1
HG02279	PEL	1			1
HG02280	ACB	1			1
HG02281	ACB	1			1
HG02282	ACB	1			1
HG02283	ACB	1			1
HG02284	ACB	1			1
HG02285	PEL	1			1
HG02286	PEL	1			1
HG02287	PEL	1			1
HG02288	PEL			1	
HG02291	PEL	1			1
HG02292	PEL	1			1
HG02293	PEL	1			1
HG02298	PEL	1			1
HG02299	PEL	1			1
HG02300	PEL	1			1
HG02301	PEL	1			1
HG02302	PEL	1			1
HG02303	PEL	1			1
HG02304	PEL			1	
HG02307	ACB	1			1
HG02308	ACB	1			1
HG02309	ACB	1			1
HG02312	PEL			1	
HG02314	ACB	1			1
HG02315	ACB	1			1
HG02316	ACB	1			1
HG02317	ACB	1			1
HG02318	ACB	1			1
HG02321	ACB	1			1
HG02322	ACB	1			1
HG02323	ACB	1			1
HG02325	ACB	1			1
HG02330	ACB	1			1
HG02332	ACB	1			1
HG02334	ACB	1			1
HG02337	ACB	1			1
HG02339	ACB	1			1
HG02343	ACB	1			1
HG02344	PEL			1	
HG02345	PEL			1	
HG02347	PEL			1	
HG02348	PEL			1	
HG02351	CDX	1			1
HG02353	CDX	1			1
HG02355	CDX	1			1
HG02356	CDX	1			1
HG02358	CDX			1	
HG02360	CDX	1			1
HG02363	CDX	1			1
HG02364	CDX	1			1
HG02367	CDX	1			1
HG02371	CDX	1			1
HG02372	CDX	1			1
HG02373	CDX	1			1
HG02374	CDX	1			1
HG02375	CDX	1			1
HG02377	CDX	1			1
HG02379	CDX	1			1
HG02380	CDX	1			1
HG02381	CDX	1			1
HG02382	CDX	1			1
HG02383	CDX	1			1
HG02384	CDX	1			1
HG02385	CDX	1			1
HG02386	CDX	1			1
HG02387	CDX	1			1
HG02388	CDX	1			1
HG02389	CDX	1			1
HG02390	CDX	1			1
HG02391	CDX	1			1
HG02392	CDX	1			1
HG02394	CDX	1			1
HG02395	CDX	1			1
HG02396	CDX	1			1
HG02397	CDX	1			1
HG02398	CDX	1			1
HG02399	CDX	1			1
HG02401	CDX	1			1
HG02402	CDX	1			1
HG02405	CDX			1	
HG02406	CDX	1			1
HG02407	CDX	1			1
HG02408	CDX			1	
HG02409	CDX	1			1
HG02410	CDX			1	
HG02415	PEL			1	
HG02419	ACB	1			1
HG02420	ACB	1			1
HG02425	PEL			1	
HG02427	ACB	1			1
HG02428	ACB	1			1
HG02429	ACB	1			1
HG02433	ACB	1			1
HG02436	ACB	1			1
HG02439	ACB			1	
HG02442	ACB	1			1
HG02445	ACB	1			1
HG02449	ACB	1			1
HG02450	ACB	1			1
HG02451	ACB	1			1
HG02455	ACB			1	
HG02461	GWD			1	
HG02462	GWD			1	
HG02463	GWD			1	
HG02464	GWD			1	
HG02465	GWD			1	
HG02466	GWD			1	
HG02470	ACB	1			1
HG02471	ACB	1			1
HG02476	ACB			1	
HG02477	ACB			1	
HG02478	ACB	1			1
HG02479	ACB	1			1
HG02480	ACB	1			1
HG02481	ACB			1	
HG02484	ACB	1			1
HG02485	ACB	1			1
HG02486	ACB	1			1
HG02489	ACB	1			1
HG02490	PJL			1	
HG02491	PJL			1	
HG02492	PJL			1	
HG02493	PJL			1	
HG02494	PJL			1	
HG02495	PJL			1	
HG02496	ACB	1			1
HG02497	ACB	1			1
HG02501	ACB			1	
HG02502	ACB			1	
HG02505	ACB			1	
HG02508	ACB	1			1
HG02511	ACB	1			1
HG02512	KHV	1			1
HG02513	KHV	1			1
HG02514	KHV	1			1
HG02521	KHV	1			1
HG02522	KHV	1			1
HG02523	KHV	1			1
HG02524	KHV			1	
HG02525	KHV			1	
HG02526	KHV				
HG02536	ACB			1	
HG02537	ACB	1		1	1
HG02541	ACB			1	
HG02545	ACB			1	
HG02546	ACB			1	
HG02547	ACB				
HG02549	ACB			1	
HG02554	ACB			1	
HG02555	ACB			1	
HG02557	ACB			1	
HG02558	ACB			1	
HG02559	ACB				
HG02561	GWD			1	
HG02562	GWD			1	
HG02563	GWD			1	
HG02567	GWD			1	
HG02568	GWD			1	
HG02569	GWD			1	
HG02570	GWD			1	
HG02571	GWD			1	
HG02572	GWD			1	
HG02573	GWD			1	
HG02574	GWD			1	
HG02575	GWD			1	
HG02577	ACB			1	
HG02580	ACB			1	
HG02582	GWD			1	
HG02583	GWD			1	
HG02584	GWD			1	
HG02585	GWD			1	
HG02586	GWD			1	
HG02587	GWD			1	
HG02588	GWD			1	
HG02589	GWD			1	
HG02590	GWD			1	
HG02594	GWD			1	
HG02595	GWD			1	
HG02596	GWD			1	
HG02597	PJL			1	
HG02599	PJL			1	
HG02600	PJL			1	
HG02601	PJL			1	
HG02602	PJL			1	
HG02603	PJL			1	
HG02604	PJL			1	
HG02605	PJL			1	
HG02610	GWD			1	
HG02611	GWD			1	
HG02612	GWD			1	
HG02613	GWD			1	
HG02614	GWD			1	
HG02615	GWD			1	
HG02620	GWD			1	
HG02621	GWD			1	
HG02622	GWD			1	
HG02623	GWD			1	
HG02624	GWD			1	
HG02625	GWD			1	
HG02628	GWD			1	
HG02629	GWD			1	
HG02630	GWD			1	
HG02634	GWD			1	
HG02635	GWD			1	
HG02636	GWD			1	
HG02642	GWD			1	
HG02643	GWD			1	
HG02644	GWD			1	
HG02645	GWD			1	
HG02646	GWD			1	
HG02647	GWD			1	
HG02648	PJL			1	
HG02649	PJL			1	
HG02650	PJL			1	
HG02651	PJL			1	
HG02652	PJL			1	
HG02653	PJL			1	
HG02654	PJL			1	
HG02655	PJL			1	
HG02656	PJL			1	
HG02657	PJL			1	
HG02658	PJL			1	
HG02659	PJL			1	
HG02660	PJL			1	
HG02661	PJL			1	
HG02662	PJL			1	
HG02666	GWD			1	
HG02667	GWD			1	
HG02668	GWD			1	
HG02675	GWD			1	
HG02676	GWD			1	
HG02677	GWD			1	
HG02678	GWD			1	
HG02679	GWD			1	
HG02680	GWD			1	
HG02681	PJL			1	
HG02682	PJL			1	
HG02683	PJL			1	
HG02684	PJL			1	
HG02685	PJL			1	
HG02686	PJL			1	
HG02687	PJL			1	
HG02688	PJL			1	
HG02689	PJL			1	
HG02690	PJL			1	
HG02691	PJL			1	
HG02692	PJL			1	
HG02694	PJL			1	
HG02696	PJL			1	
HG02697	PJL			1	
HG02698	PJL			1	
HG02699	PJL			1	
HG02700	PJL			1	
HG02701	PJL			1	
HG02702	GWD			1	
HG02703	GWD			1	
HG02704	GWD			1	
HG02715	GWD			1	
HG02716	GWD			1	
HG02717	GWD			1	
HG02721	GWD			1	
HG02722	GWD			1	
HG02723	GWD			1	
HG02724	PJL			1	
HG02725	PJL			1	
HG02726	PJL			1	
HG02727	PJL			1	
HG02728	PJL			1	
HG02729	PJL			1	
HG02731	PJL			1	
HG02733	PJL			1	
HG02734	PJL			1	
HG02735	PJL			1	
HG02736	PJL			1	
HG02737	PJL			1	
HG02738	PJL			1	
HG02756	GWD			1	
HG02757	GWD			1	
HG02758	GWD			1	
HG02759	GWD			1	
HG02760	GWD			1	
HG02761	GWD			1	
HG02762	GWD			1	
HG02763	GWD			1	
HG02764	GWD			1	
HG02768	GWD			1	
HG02769	GWD			1	
HG02770	GWD			1	
HG02771	GWD			1	
HG02772	GWD			1	
HG02773	GWD			1	
HG02774	PJL			1	
HG02775	PJL			1	
HG02776	PJL			1	
HG02778	PJL			1	
HG02779	PJL			1	
HG02780	PJL			1	
HG02781	PJL			1	
HG02783	PJL			1	
HG02784	PJL			1	
HG02785	PJL			1	
HG02786	PJL			1	
HG02787	PJL			1	
HG02788	PJL			1	
HG02789	PJL			1	
HG02790	PJL			1	
HG02791	PJL			1	
HG02792	PJL			1	
HG02793	PJL			1	
HG02794	PJL			1	
HG02798	GWD			1	
HG02799	GWD			1	
HG02800	GWD			1	
HG02804	GWD			1	
HG02805	GWD			1	
HG02806	GWD			1	
HG02807	GWD			1	
HG02808	GWD			1	
HG02809	GWD			1	
HG02810	GWD			1	
HG02811	GWD			1	
HG02812	GWD			1	
HG02813	GWD			1	
HG02814	GWD			1	
HG02815	GWD			1	
HG02816	GWD			1	
HG02817	GWD			1	
HG02818	GWD			1	
HG02819	GWD			1	
HG02820	GWD			1	
HG02821	GWD			1	
HG02836	GWD			1	
HG02837	GWD			1	
HG02838	GWD			1	
HG02839	GWD			1	
HG02840	GWD			1	
HG02841	GWD			1	
HG02851	GWD			1	
HG02852	GWD			1	
HG02853	GWD			1	
HG02854	GWD			1	
HG02855	GWD			1	
HG02856	GWD			1	
HG02860	GWD			1	
HG02861	GWD			1	
HG02862	GWD			1	
HG02869	GWD			1	
HG02870	GWD			1	
HG02871	GWD			1	
HG02878	GWD			1	
HG02879	GWD			1	
HG02880	GWD			1	
HG02881	GWD			1	
HG02882	GWD			1	
HG02883	GWD			1	
HG02884	GWD			1	
HG02885	GWD			1	
HG02886	GWD			1	
HG02887	GWD			1	
HG02888	GWD			1	
HG02889	GWD			1	
HG02890	GWD			1	
HG02891	GWD			1	
HG02892	GWD			1	
HG02895	GWD			1	
HG02896	GWD			1	
HG02897	GWD			1	
HG02922	ESN			1	
HG02923	ESN			1	
HG02924	ESN			1	
HG02938	ESN			1	
HG02939	ESN			1	
HG02941	ESN			1	
HG02942	ESN			1	
HG02943	ESN			1	
HG02944	ESN			1	
HG02945	ESN			1	
HG02946	ESN			1	
HG02947	ESN			1	
HG02948	ESN			1	
HG02952	ESN			1	
HG02953	ESN			1	
HG02954	ESN			1	
HG02964	ESN			1	
HG02965	ESN			1	
HG02966	ESN			1	
HG02968	ESN			1	
HG02969	ESN			1	
HG02970	ESN			1	
HG02971	ESN			1	
HG02972	ESN			1	
HG02973	ESN			1	
HG02974	ESN			1	
HG02975	ESN			1	
HG02976	ESN			1	
HG02977	ESN			1	
HG02978	ESN			1	
HG02979	ESN			1	
HG02980	ESN			1	
HG02981	ESN			1	
HG02982	GWD			1	
HG02983	GWD			1	
HG02984	GWD			1	
HG03006	BEB			1	
HG03007	BEB			1	
HG03008	BEB			1	
HG03009	BEB			1	
HG03012	BEB			1	
HG03015	PJL			1	
HG03016	PJL			1	
HG03017	PJL			1	
HG03018	PJL			1	
HG03019	PJL			1	
HG03021	PJL			1	
HG03022	PJL			1	
HG03023	PJL			1	
HG03024	GWD			1	
HG03025	GWD			1	
HG03026	GWD			1	
HG03027	GWD			1	
HG03028	GWD			1	
HG03029	GWD			1	
HG03033	GWD			1	
HG03034	GWD			1	
HG03035	GWD			1	
HG03039	GWD			1	
HG03040	GWD			1	
HG03041	GWD			1	
HG03045	GWD			1	
HG03046	GWD			1	
HG03047	GWD			1	
HG03048	GWD			1	
HG03049	GWD			1	
HG03050	GWD			1	
HG03052	MSL			1	
HG03053	MSL			1	
HG03054	MSL			1	
HG03055	MSL			1	
HG03056	MSL			1	
HG03057	MSL			1	
HG03058	MSL			1	
HG03059	MSL			1	
HG03060	MSL			1	
HG03061	MSL			1	
HG03062	MSL			1	
HG03063	MSL			1	
HG03064	MSL			1	
HG03065	MSL			1	
HG03066	MSL			1	
HG03069	MSL			1	
HG03072	MSL			1	
HG03073	MSL			1	
HG03074	MSL			1	
HG03076	MSL			1	
HG03077	MSL			1	
HG03078	MSL			1	
HG03079	MSL			1	
HG03080	MSL			1	
HG03081	MSL			1	
HG03082	MSL			1	
HG03084	MSL			1	
HG03085	MSL			1	
HG03086	MSL			1	
HG03088	MSL			1	
HG03091	MSL			1	
HG03095	MSL			1	
HG03096	MSL			1	
HG03097	MSL			1	
HG03098	MSL			1	
HG03099	ESN			1	
HG03100	ESN			1	
HG03101	ESN			1	
HG03103	ESN			1	
HG03104	ESN			1	
HG03105	ESN			1	
HG03107	ESN			1	
HG03108	ESN			1	
HG03109	ESN			1	
HG03110	ESN			1	
HG03111	ESN			1	
HG03112	ESN			1	
HG03113	ESN			1	
HG03114	ESN			1	
HG03115	ESN			1	
HG03116	ESN			1	
HG03117	ESN			1	
HG03118	ESN			1	
HG03119	ESN			1	
HG03120	ESN			1	
HG03121	ESN			1	
HG03122	ESN			1	
HG03123	ESN			1	
HG03124	ESN			1	
HG03125	ESN			1	
HG03126	ESN			1	
HG03127	ESN			1	
HG03128	ESN			1	
HG03129	ESN			1	
HG03130	ESN			1	
HG03131	ESN			1	
HG03132	ESN			1	
HG03133	ESN			1	
HG03134	ESN			1	
HG03135	ESN			1	
HG03136	ESN			1	
HG03137	ESN			1	
HG03139	ESN			1	
HG03140	ESN			1	
HG03157	ESN			1	
HG03158	ESN			1	
HG03159	ESN			1	
HG03160	ESN			1	
HG03161	ESN			1	
HG03162	ESN			1	
HG03163	ESN			1	
HG03164	ESN			1	
HG03166	ESN			1	
HG03167	ESN			1	
HG03168	ESN			1	
HG03169	ESN			1	
HG03170	ESN			1	
HG03171	ESN			1	
HG03172	ESN			1	
HG03173	ESN			1	
HG03175	ESN			1	
HG03176	ESN			1	
HG03189	ESN			1	
HG03190	ESN			1	
HG03191	ESN			1	
HG03193	ESN			1	
HG03194	ESN			1	
HG03195	ESN			1	
HG03196	ESN			1	
HG03197	ESN			1	
HG03198	ESN			1	
HG03199	ESN			1	
HG03200	ESN			1	
HG03202	ESN			1	
HG03203	ESN			1	
HG03209	MSL			1	
HG03212	MSL			1	
HG03224	MSL			1	
HG03225	MSL			1	
HG03228	PJL			1	
HG03229	PJL			1	
HG03230	PJL			1	
HG03234	PJL			1	
HG03235	PJL			1	
HG03236	PJL			1	
HG03237	PJL			1	
HG03238	PJL			1	
HG03239	PJL			1	
HG03240	GWD			1	
HG03241	GWD			1	
HG03242	GWD			1	
HG03246	GWD			1	
HG03247	GWD			1	
HG03248	GWD			1	
HG03249	GWD			1	
HG03250	GWD			1	
HG03251	GWD			1	
HG03258	GWD			1	
HG03259	GWD			1	
HG03260	GWD			1	
HG03265	ESN			1	
HG03266	ESN			1	
HG03267	ESN			1	
HG03268	ESN			1	
HG03269	ESN			1	
HG03270	ESN			1	
HG03271	ESN			1	
HG03272	ESN			1	
HG03279	ESN			1	
HG03280	ESN			1	
HG03291	ESN			1	
HG03293	ESN			1	
HG03294	ESN			1	
HG03295	ESN			1	
HG03296	ESN			1	
HG03297	ESN			1	
HG03298	ESN			1	
HG03299	ESN			1	
HG03300	ESN			1	
HG03301	ESN			1	
HG03302	ESN			1	
HG03303	ESN			1	
HG03304	ESN			1	
HG03305	ESN			1	
HG03306	ESN			1	
HG03307	ESN			1	
HG03308	ESN			1	
HG03309	ESN			1	
HG03310	ESN			1	
HG03311	ESN			1	
HG03312	ESN			1	
HG03313	ESN			1	
HG03314	ESN			1	
HG03339	ESN			1	
HG03341	ESN			1	
HG03342	ESN			1	
HG03343	ESN			1	
HG03344	ESN			1	
HG03350	ESN			1	
HG03351	ESN			1	
HG03352	ESN			1	
HG03354	ESN			1	
HG03361	ESN			1	
HG03362	ESN			1	
HG03363	ESN			1	
HG03365	ESN			1	
HG03366	ESN			1	
HG03367	ESN			1	
HG03368	ESN			1	
HG03369	ESN			1	
HG03370	ESN			1	
HG03371	ESN			1	
HG03372	ESN			1	
HG03373	ESN			1	
HG03374	ESN			1	
HG03376	MSL			1	
HG03378	MSL			1	
HG03380	MSL			1	
HG03381	MSL			1	
HG03382	MSL			1	
HG03383	MSL			1	
HG03384	MSL			1	
HG03385	MSL			1	
HG03388	MSL			1	
HG03390	MSL			1	
HG03391	MSL			1	
HG03393	MSL			1	
HG03394	MSL			1	
HG03397	MSL			1	
HG03398	MSL			1	
HG03399	MSL			1	
HG03401	MSL			1	
HG03402	MSL			1	
HG03408	MSL			1	
HG03410	MSL			1	
HG03411	MSL			1	
HG03419	MSL			1	
HG03428	MSL			1	
HG03431	MSL			1	
HG03432	MSL			1	
HG03433	MSL			1	
HG03436	MSL			1	
HG03437	MSL			1	
HG03438	MSL			1	
HG03439	MSL			1	
HG03442	MSL			1	
HG03445	MSL			1	
HG03446	MSL			1	
HG03449	MSL			1	
HG03450	MSL			1	
HG03451	MSL			1	
HG03452	MSL			1	
HG03453	MSL			1	
HG03454	MSL			1	
HG03455	MSL			1	
HG03456	MSL			1	
HG03457	MSL			1	
HG03458	MSL			1	
HG03459	MSL			1	
HG03460	MSL			1	
HG03461	MSL			1	
HG03462	MSL			1	
HG03464	MSL			1	
HG03465	MSL			1	
HG03466	MSL			1	
HG03468	MSL			1	
HG03469	MSL			1	
HG03470	MSL			1	
HG03471	MSL			1	
HG03472	MSL			1	
HG03473	MSL			1	
HG03474	MSL			1	
HG03476	MSL			1	
HG03477	MSL			1	
HG03478	MSL			1	
HG03479	MSL			1	
HG03480	MSL			1	
HG03484	MSL			1	
HG03485	MSL			1	
HG03486	MSL			1	
HG03487	PJL			1	
HG03488	PJL			1	
HG03489	PJL			1	
HG03490	PJL			1	
HG03491	PJL			1	
HG03492	PJL			1	
HG03493	ESN			1	
HG03499	ESN			1	
HG03508	ESN			1	
HG03510	ESN			1	
HG03511	ESN			1	
HG03513	ESN			1	
HG03514	ESN			1	
HG03515	ESN			1	
HG03516	ESN			1	
HG03517	ESN			1	
HG03518	ESN			1	
HG03519	ESN			1	
HG03520	ESN			1	
HG03521	ESN			1	
HG03522	ESN			1	
HG03538	GWD			1	
HG03539	GWD			1	
HG03540	GWD			1	
HG03547	MSL			1	
HG03548	MSL			1	
HG03549	MSL			1	
HG03556	MSL			1	
HG03557	MSL			1	
HG03558	MSL			1	
HG03559	MSL			1	
HG03563	MSL			1	
HG03564	MSL			1	
HG03565	MSL			1	
HG03566	MSL			1	
HG03567	MSL			1	
HG03569	MSL			1	
HG03571	MSL			1	
HG03572	MSL			1	
HG03574	MSL			1	
HG03575	MSL			1	
HG03576	MSL			1	
HG03577	MSL			1	
HG03578	MSL			1	
HG03579	MSL			1	
HG03582	MSL			1	
HG03583	MSL			1	
HG03584	MSL			1	
HG03585	BEB			1	
HG03587	BEB			1	
HG03589	BEB			1	
HG03590	BEB			1	
HG03593	BEB			1	
HG03594	BEB			1	
HG03595	BEB			1	
HG03596	BEB			1	
HG03598	BEB			1	
HG03599	BEB			1	
HG03600	BEB			1	
HG03602	BEB			1	
HG03603	BEB			1	
HG03604	BEB			1	
HG03605	BEB			1	
HG03606	BEB			1	
HG03607	BEB			1	
HG03611	BEB			1	
HG03615	BEB			1	
HG03616	BEB				
HG03617	BEB			1	
HG03618	PJL			1	
HG03619	PJL			1	
HG03620	PJL			1	
HG03621	PJL			1	
HG03624	PJL			1	
HG03625	PJL			1	
HG03626	PJL			1	
HG03629	PJL			1	
HG03631	PJL			1	
HG03633	PJL			1	
HG03634	PJL			1	
HG03635	PJL			1	
HG03636	PJL			1	
HG03638	PJL			1	
HG03639	PJL			1	
HG03640	PJL			1	
HG03641	PJL			1	
HG03642	STU			1	
HG03643	STU			1	
HG03644	STU			1	
HG03645	STU			1	
HG03646	STU			1	
HG03649	PJL			1	
HG03650	PJL			1	
HG03651	PJL			1	
HG03652	PJL			1	
HG03653	PJL			1	
HG03654	PJL			1	
HG03656	PJL			1	
HG03657	PJL			1	
HG03660	PJL				
HG03663	PJL			1	
HG03667	PJL			1	
HG03668	PJL			1	
HG03669	PJL			1	
HG03672	STU			1	
HG03673	STU			1	
HG03679	STU			1	
HG03680	STU			1	
HG03681	STU			1	
HG03682	STU			1	
HG03683	STU			1	
HG03684	STU			1	
HG03685	STU			1	
HG03686	STU			1	
HG03687	STU			1	
HG03688	STU			1	
HG03689	STU			1	
HG03690	STU			1	
HG03691	STU			1	
HG03692	STU			1	
HG03693	STU			1	
HG03694	STU			1	
HG03695	STU			1	
HG03696	STU			1	
HG03697	STU			1	
HG03698	STU			1	
HG03699	PJL			1	
HG03700	PJL			1	
HG03701	PJL			1	
HG03702	PJL			1	
HG03703	PJL			1	
HG03704	PJL			1	
HG03705	PJL			1	
HG03706	PJL			1	
HG03707	PJL			1	
HG03708	PJL			1	
HG03709	PJL			1	
HG03710	PJL			1	
HG03711	STU			1	
HG03713	ITU			1	
HG03714	ITU			1	
HG03715	ITU			1	
HG03716	ITU			1	
HG03717	ITU			1	
HG03718	ITU			1	
HG03719	ITU			1	
HG03720	ITU			1	
HG03721	ITU			1	
HG03722	ITU			1	
HG03723	ITU			1	
HG03725	ITU			1	
HG03727	ITU			1	
HG03729	ITU			1	
HG03730	ITU			1	
HG03731	ITU			1	
HG03732	ITU			1	
HG03733	STU			1	
HG03736	STU			1	
HG03738	STU			1	
HG03740	STU			1	
HG03741	STU			1	
HG03742	ITU			1	
HG03743	STU			1	
HG03744	STU			1	
HG03745	STU			1	
HG03746	STU			1	
HG03750	STU			1	
HG03752	STU			1	
HG03753	STU			1	
HG03754	STU			1	
HG03755	STU			1	
HG03756	STU			1	
HG03757	STU			1	
HG03760	STU			1	
HG03761	PJL			1	
HG03762	PJL			1	
HG03763	PJL			1	
HG03765	PJL			1	
HG03766	PJL			1	
HG03767	PJL			1	
HG03769	PJL			1	
HG03770	ITU			1	
HG03771	ITU			1	
HG03772	ITU			1	
HG03773	ITU			1	
HG03774	ITU			1	
HG03775	ITU			1	
HG03777	ITU			1	
HG03778	ITU			1	
HG03779	ITU			1	
HG03780	ITU			1	
HG03781	ITU			1	
HG03782	ITU			1	
HG03783	ITU			1	
HG03784	ITU			1	
HG03785	ITU			1	
HG03786	ITU			1	
HG03787	ITU			1	
HG03788	ITU			1	
HG03789	ITU			1	
HG03790	ITU			1	
HG03792	ITU			1	
HG03793	BEB			1	
HG03794	BEB			1	
HG03795	BEB			1	
HG03796	BEB			1	
HG03797	BEB			1	
HG03798	BEB			1	
HG03799	BEB			1	
HG03800	BEB			1	
HG03801	BEB				
HG03802	BEB			1	
HG03803	BEB			1	
HG03804	BEB			1	
HG03805	BEB			1	
HG03806	BEB			1	
HG03807	BEB			1	
HG03808	BEB			1	
HG03809	BEB			1	
HG03811	BEB			1	
HG03812	BEB			1	
HG03813	BEB			1	
HG03814	BEB			1	
HG03815	BEB			1	
HG03816	BEB			1	
HG03817	BEB			1	
HG03821	BEB			1	
HG03822	BEB			1	
HG03823	BEB			1	
HG03824	BEB			1	
HG03825	BEB			1	
HG03826	BEB			1	
HG03829	BEB			1	
HG03830	BEB			1	
HG03831	BEB			1	
HG03832	BEB			1	
HG03833	BEB			1	
HG03834	BEB			1	
HG03835	STU			1	
HG03836	STU			1	
HG03837	STU			1	
HG03838	STU			1	
HG03840	STU			1	
HG03842	STU			1	
HG03844	STU			1	
HG03845	STU			1	
HG03846	STU			1	
HG03847	STU			1	
HG03848	STU			1	
HG03849	STU			1	
HG03850	STU			1	
HG03851	STU			1	
HG03854	STU			1	
HG03856	STU			1	
HG03857	STU			1	
HG03858	STU			1	
HG03861	ITU			1	
HG03862	ITU			1	
HG03863	ITU			1	
HG03864	ITU			1	
HG03866	ITU			1	
HG03867	ITU			1	
HG03868	ITU			1	
HG03869	ITU			1	
HG03870	ITU			1	
HG03871	ITU			1	
HG03872	ITU			1	
HG03873	ITU			1	
HG03874	ITU			1	
HG03875	ITU			1	
HG03876	ITU			1	
HG03879	ITU			1	
HG03882	ITU			1	
HG03884	STU			1	
HG03885	STU			1	
HG03886	STU			1	
HG03887	STU			1	
HG03888	STU			1	
HG03890	STU			1	
HG03894	STU			1	
HG03895	STU			1	
HG03896	STU			1	
HG03897	STU			1	
HG03898	STU			1	
HG03899	STU			1	
HG03900	STU			1	
HG03901	BEB			1	
HG03902	BEB			1	
HG03903	BEB			1	
HG03904	BEB			1	
HG03905	BEB			1	
HG03906	BEB			1	
HG03907	BEB			1	
HG03908	BEB			1	
HG03909	BEB			1	
HG03910	BEB			1	
HG03911	BEB			1	
HG03913	BEB			1	
HG03914	BEB			1	
HG03915	BEB			1	
HG03916	BEB			1	
HG03917	BEB			1	
HG03919	BEB			1	
HG03920	BEB			1	
HG03922	BEB			1	
HG03924	BEB			1	
HG03925	BEB			1	
HG03926	BEB			1	
HG03927	BEB			1	
HG03928	BEB			1	
HG03929	BEB			1	
HG03930	BEB			1	
HG03931	BEB			1	
HG03934	BEB			1	
HG03937	BEB			1	
HG03939	BEB			1	
HG03940	BEB			1	
HG03941	BEB			1	
HG03942	BEB			1	
HG03943	STU			1	
HG03944	STU			1	
HG03945	STU			1	
HG03947	STU			1	
HG03948	STU			1	
HG03949	STU			1	
HG03950	STU			1	
HG03951	STU			1	
HG03953	STU			1	
HG03955	STU			1	
HG03960	ITU			1	
HG03963	ITU			1	
HG03965	ITU			1	
HG03967	ITU			1	
HG03968	ITU			1	
HG03969	ITU			1	
HG03971	ITU			1	
HG03972	ITU			1	
HG03973	ITU			1	
HG03974	ITU			1	
HG03976	ITU			1	
HG03977	ITU			1	
HG03978	ITU			1	
HG03982	STU			1	
HG03985	STU			1	
HG03986	STU			1	
HG03988	STU			1	
HG03989	STU			1	
HG03990	STU			1	
HG03991	STU			1	
HG03992	STU			1	
HG03995	STU			1	
HG03998	STU			1	
HG03999	STU			1	
HG04001	ITU			1	
HG04002	ITU			1	
HG04003	STU			1	
HG04006	STU			1	
HG04014	ITU			1	
HG04015	ITU			1	
HG04017	ITU			1	
HG04018	ITU			1	
HG04019	ITU			1	
HG04020	ITU			1	
HG04022	ITU			1	
HG04023	ITU			1	
HG04024	ITU			1	
HG04025	ITU			1	
HG04026	ITU			1	
HG04029	STU			1	
HG04033	STU			1	
HG04035	STU			1	
HG04036	STU			1	
HG04037	STU			1	
HG04038	STU			1	
HG04039	STU			1	
HG04040	STU			1	
HG04042	STU			1	
HG04047	STU			1	
HG04050	ITU			1	
HG04053	ITU			1	
HG04054	ITU			1	
HG04055	ITU			1	
HG04056	ITU			1	
HG04058	ITU			1	
HG04059	ITU			1	
HG04060	ITU			1	
HG04061	ITU			1	
HG04062	ITU			1	
HG04063	ITU			1	
HG04067	STU			1	
HG04070	ITU			1	
HG04075	STU			1	
HG04076	ITU			1	
HG04080	ITU			1	
HG04090	ITU			1	
HG04093	ITU			1	
HG04094	ITU			1	
HG04096	ITU			1	
HG04098	ITU			1	
HG04099	STU			1	
HG04100	STU			1	
HG04106	STU			1	
HG04107	STU			1	
HG04114	STU			1	
HG04115	STU			1	
HG04118	ITU			1	
HG04122	STU			1	
HG04127	STU			1	
HG04128	BEB			1	
HG04131	BEB			1	
HG04132	BEB			1	
HG04133	BEB			1	
HG04134	BEB			1	
HG04135	BEB			1	
HG04136	BEB			1	
HG04140	BEB			1	
HG04141	BEB			1	
HG04142	BEB			1	
HG04144	BEB			1	
HG04146	BEB			1	
HG04147	BEB			1	
HG04148	BEB			1	
HG04149	BEB				
HG04150	BEB			1	
HG04151	BEB			1	
HG04152	BEB			1	
HG04153	BEB			1	
HG04155	BEB			1	
HG04156	BEB			1	
HG04157	BEB			1	
HG04158	BEB			1	
HG04159	BEB			1	
HG04160	BEB			1	
HG04161	BEB			1	
HG04162	BEB			1	
HG04164	BEB			1	
HG04171	BEB			1	
HG04173	BEB			1	
HG04174	BEB			1	
HG04175	BEB			1	
HG04176	BEB			1	
HG04177	BEB			1	
HG04180	BEB			1	
HG04181	BEB			1	
HG04182	BEB			1	
HG04183	BEB			1	
HG04184	BEB			1	
HG04185	BEB			1	
HG04186	BEB			1	
HG04187	BEB			1	
HG04188	BEB			1	
HG04189	BEB			1	
HG04191	BEB			1	
HG04192	BEB			1	
HG04193	BEB			1	
HG04194	BEB			1	
HG04195	BEB			1	
HG04197	STU			1	
HG04198	ITU			1	
HG04199	STU			1	
HG04200	ITU			1	
HG04202	ITU			1	
HG04204	STU			1	
HG04206	ITU			1	
HG04208	STU			1	
HG04209	ITU			1	
HG04210	STU			1	
HG04211	ITU			1	
HG04212	ITU			1	
HG04214	ITU			1	
HG04215	STU			1	
HG04216	ITU			1	
HG04217	ITU			1	
HG04219	ITU			1	
HG04222	ITU			1	
HG04225	ITU			1	
HG04227	STU			1	
HG04228	STU			1	
HG04229	STU			1	
HG04235	ITU			1	
HG04238	ITU			1	
HG04239	ITU			1	
HG04301	GBR			1	
HG04302	GBR			1	
HG04303	GBR			1	
NA06984	CEU	1	1		1
NA06985	CEU	1	1		1
NA06986	CEU	1	1		1
NA06989	CEU	1	1		1
NA06991	CEU		1		
NA06993	CEU		1		
NA06994	CEU	1	1		1
NA06995	CEU		1		
NA06997	CEU		1		
NA07000	CEU	1	1		1
NA07014	CEU		1		
NA07019	CEU		1		
NA07022	CEU		1		
NA07029	CEU		1		
NA07031	CEU		1		
NA07034	CEU		1		
NA07037	CEU	1	1		1
NA07045	CEU		1		
NA07048	CEU	1	1		
NA07051	CEU	1	1		1
NA07055	CEU		1		
NA07056	CEU	1	1		1
NA07340	CEU				
NA07345	CEU		1		
NA07346	CEU	1	1		1
NA07347	CEU	1	1		1
NA07348	CEU		1		
NA07349	CEU		1		
NA07357	CEU	1	1		1
NA07435	CEU		1		
NA10830	CEU		1		
NA10831	CEU		1		
NA10835	CEU		1		
NA10836	CEU		1		
NA10837	CEU		1		
NA10838	CEU		1		
NA10839	CEU		1		
NA10840	CEU		1		
NA10842	CEU		1		
NA10843	CEU		1		
NA10845	CEU		1		
NA10846	CEU		1		
NA10847	CEU	1	1		1
NA10850	CEU		1		
NA10851	CEU	1	1		1
NA10852	CEU		1		
NA10853	CEU		1		
NA10854	CEU		1		
NA10855	CEU		1		
NA10856	CEU		1		
NA10857	CEU		1		
NA10859	CEU		1		
NA10860	CEU		1		
NA10861	CEU		1		
NA10863	CEU		1		
NA10864	CEU		1		
NA10865	CEU		1		
NA11829	CEU	1	1		1
NA11830	CEU	1	1		1
NA11831	CEU	1	1		1
NA11832	CEU	1	1		1
NA11839	CEU		1		
NA11840	CEU	1	1		1
NA11843	CEU	1	1		1
NA11881	CEU	1	1		1
NA11882	CEU		1		
NA11891	CEU		1		
NA11892	CEU	1	1		1
NA11893	CEU	1	1		1
NA11894	CEU	1	1		1
NA11917	CEU		1		
NA11918	CEU	1	1		1
NA11919	CEU	1	1		1
NA11920	CEU	1	1		1
NA11930	CEU	1	1		1
NA11931	CEU	1	1		1
NA11932	CEU	1			1
NA11933	CEU	1			1
NA11992	CEU	1	1		1
NA11993	CEU	1	1		1
NA11994	CEU	1	1		1
NA11995	CEU	1	1		1
NA12003	CEU	1	1		1
NA12004	CEU	1	1		1
NA12005	CEU	1	1		1
NA12006	CEU	1	1		1
NA12043	CEU	1	1		1
NA12044	CEU	1	1		1
NA12045	CEU	1	1		1
NA12046	CEU	1			1
NA12056	CEU		1		
NA12057	CEU		1		
NA12058	CEU	1	1		1
NA12144	CEU	1	1		1
NA12145	CEU		1		
NA12146	CEU		1		
NA12154	CEU	1	1		1
NA12155	CEU	1	1		1
NA12156	CEU	1	1		1
NA12234	CEU	1	1		1
NA12239	CEU		1		
NA12248	CEU		1		
NA12249	CEU	1	1		1
NA12264	CEU		1		
NA12272	CEU	1	1		1
NA12273	CEU	1	1		1
NA12274	CEU		1		
NA12275	CEU	1	1		1
NA12282	CEU	1	1		1
NA12283	CEU	1	1		1
NA12286	CEU	1	1		1
NA12287	CEU	1	1		1
NA12329	CEU	1	1		1
NA12335	CEU		1		
NA12336	CEU		1		
NA12340	CEU	1	1		1
NA12341	CEU	1	1		1
NA12342	CEU	1	1		1
NA12343	CEU		1		
NA12344	CEU		1		
NA12347	CEU	1	1		1
NA12348	CEU	1	1		1
NA12375	CEU		1		
NA12376	CEU		1		
NA12383	CEU	1	1		1
NA12386	CEU		1		
NA12399	CEU	1	1		1
NA12400	CEU	1	1		1
NA12413	CEU	1	1		1
NA12414	CEU	1	1		1
NA12485	CEU		1		
NA12489	CEU	1	1		
NA12546	CEU	1	1		1
NA12707	CEU		1		
NA12708	CEU		1		
NA12716	CEU	1	1		1
NA12717	CEU	1	1		1
NA12718	CEU	1	1		1
NA12739	CEU		1		
NA12740	CEU		1		1
NA12748	CEU	1	1		1
NA12749	CEU	1	1		1
NA12750	CEU	1	1		1
NA12751	CEU	1	1		
NA12752	CEU		1		1
NA12753	CEU		1		1
NA12760	CEU	1	1		1
NA12761	CEU	1	1		1
NA12762	CEU	1	1		1
NA12763	CEU	1	1		1
NA12766	CEU		1		
NA12767	CEU		1		
NA12775	CEU	1	1		1
NA12776	CEU	1	1		1
NA12777	CEU	1	1		1
NA12778	CEU	1	1		1
NA12801	CEU		1		1
NA12802	CEU		1		1
NA12812	CEU	1	1		1
NA12813	CEU	1	1		1
NA12814	CEU	1	1		1
NA12815	CEU	1	1		1
NA12817	CEU		1		
NA12818	CEU		1		
NA12827	CEU	1	1		1
NA12828	CEU	1	1		1
NA12829	CEU	1	1		1
NA12830	CEU	1	1		1
NA12832	CEU		1		
NA12842	CEU	1	1		1
NA12843	CEU	1	1		1
NA12864	CEU		1		1
NA12865	CEU		1		1
NA12872	CEU	1	1		1
NA12873	CEU	1	1		1
NA12874	CEU	1	1		1
NA12875	CEU		1		1
NA12877	CEU		1		
NA12878	CEU	1	1		1
NA12889	CEU	1	1		1
NA12890	CEU	1	1		1
NA12891	CEU	1	1		1
NA12892	CEU	1	1		1
NA18484	YRI	1	1		1
NA18485	YRI	1	1		1
NA18486	YRI	1	1		1
NA18487	YRI	1	1		1
NA18488	YRI	1	1		1
NA18489	YRI	1	1		1
NA18497	YRI	1	1		1
NA18498	YRI	1	1		1
NA18499	YRI	1	1		1
NA18500	YRI	1	1		
NA18501	YRI	1	1		1
NA18502	YRI	1	1		1
NA18503	YRI	1	1		
NA18504	YRI	1	1		1
NA18505	YRI	1	1		1
NA18506	YRI	1	1		
NA18507	YRI	1	1		1
NA18508	YRI	1	1		1
NA18509	YRI	1	1		1
NA18510	YRI	1	1		1
NA18511	YRI	1	1		
NA18515	YRI	1	1		
NA18516	YRI	1	1		1
NA18517	YRI	1	1		1
NA18518	YRI	1	1		1
NA18519	YRI	1	1		1
NA18520	YRI	1	1		1
NA18521	YRI	1	1		
NA18522	YRI	1	1		1
NA18523	YRI	1	1		1
NA18525	CHB	1			1
NA18526	CHB	1	1		1
NA18527	CHB	1			1
NA18528	CHB	1			1
NA18530	CHB	1	1		1
NA18531	CHB	1			1
NA18532	CHB	1	1		1
NA18533	CHB	1			1
NA18534	CHB	1	1		1
NA18535	CHB	1			1
NA18536	CHB	1	1		1
NA18537	CHB	1	1		1
NA18538	CHB	1			1
NA18539	CHB	1			1
NA18541	CHB	1			1
NA18542	CHB	1	1		1
NA18543	CHB	1	1		1
NA18544	CHB	1	1		1
NA18545	CHB	1	1		1
NA18546	CHB	1	1		1
NA18547	CHB	1	1		1
NA18548	CHB	1	1		1
NA18549	CHB	1	1		1
NA18550	CHB	1	1		1
NA18552	CHB	1	1		1
NA18553	CHB	1			1
NA18555	CHB	1	1		1
NA18557	CHB	1	1		1
NA18558	CHB	1	1		1
NA18559	CHB	1	1		1
NA18560	CHB	1			1
NA18561	CHB	1	1		1
NA18562	CHB	1	1		1
NA18563	CHB	1	1		1
NA18564	CHB	1	1		1
NA18565	CHB	1			1
NA18566	CHB	1	1		1
NA18567	CHB	1			1
NA18570	CHB	1	1		1
NA18571	CHB	1	1		1
NA18572	CHB	1	1		1
NA18573	CHB	1	1		1
NA18574	CHB	1			1
NA18576	CHB	1	1		1
NA18577	CHB	1	1		1
NA18579	CHB	1	1		1
NA18582	CHB	1	1		1
NA18591	CHB				
NA18592	CHB	1	1		1
NA18593	CHB	1	1		1
NA18595	CHB	1	1		1
NA18596	CHB	1	1		1
NA18597	CHB	1	1		1
NA18599	CHB	1	1		1
NA18602	CHB	1	1		1
NA18603	CHB	1	1		1
NA18605	CHB	1	1		1
NA18606	CHB	1	1		1
NA18608	CHB	1	1		1
NA18609	CHB	1	1		1
NA18610	CHB	1	1		1
NA18611	CHB	1	1		1
NA18612	CHB	1	1		1
NA18613	CHB	1	1		1
NA18614	CHB	1	1		1
NA18615	CHB	1	1		1
NA18616	CHB	1	1		1
NA18617	CHB	1	1		1
NA18618	CHB	1	1		1
NA18619	CHB	1	1		1
NA18620	CHB	1	1		1
NA18621	CHB	1	1		1
NA18622	CHB	1	1		1
NA18623	CHB	1	1		1
NA18624	CHB	1	1		1
NA18625	CHB	1	1		1
NA18626	CHB	1	1		1
NA18627	CHB	1	1		1
NA18628	CHB	1	1		1
NA18629	CHB				
NA18630	CHB	1	1		1
NA18631	CHB	1	1		1
NA18632	CHB	1	1		1
NA18633	CHB	1	1		1
NA18634	CHB	1	1		1
NA18635	CHB	1	1		1
NA18636	CHB	1	1		1
NA18637	CHB	1	1		1
NA18638	CHB	1	1		1
NA18639	CHB	1	1		1
NA18640	CHB	1	1		1
NA18641	CHB	1	1		1
NA18642	CHB	1	1		1
NA18643	CHB	1	1		1
NA18644	CHB				
NA18645	CHB	1	1		1
NA18646	CHB				
NA18647	CHB	1	1		1
NA18648	CHB				
NA18740	CHB	1	1		1
NA18745	CHB	1	1		1
NA18747	CHB	1	1		1
NA18748	CHB	1	1		1
NA18749	CHB	1	1		1
NA18757	CHB	1	1		1
NA18791	CHB				
NA18794	CHB				
NA18795	CHB				
NA18852	YRI		1		
NA18853	YRI	1	1		
NA18854	YRI	1	1		
NA18855	YRI		1		
NA18856	YRI	1	1		1
NA18857	YRI	1	1		
NA18858	YRI	1	1		1
NA18859	YRI		1		
NA18860	YRI	1	1		
NA18861	YRI	1	1		1
NA18862	YRI		1		
NA18863	YRI	1	1		
NA18864	YRI				
NA18865	YRI				
NA18867	YRI	1	1		1
NA18868	YRI	1	1		1
NA18869	YRI	1	1		1
NA18870	YRI	1	1		1
NA18871	YRI	1	1		1
NA18872	YRI	1	1		
NA18873	YRI	1	1		1
NA18874	YRI	1	1		1
NA18875	YRI	1	1		1
NA18876	YRI				
NA18877	YRI				
NA18878	YRI				
NA18879	YRI				
NA18881	YRI				
NA18906	YRI				
NA18907	YRI	1	1		1
NA18908	YRI	1	1		1
NA18909	YRI	1	1		1
NA18910	YRI	1	1		1
NA18911	YRI	1	1		1
NA18912	YRI	1	1		1
NA18913	YRI		1		
NA18914	YRI	1	1		
NA18915	YRI				
NA18916	YRI	1	1		1
NA18917	YRI	1	1		1
NA18923	YRI	1	1		1
NA18924	YRI	1	1		1
NA18925	YRI	1	1		1
NA18930	YRI	1	1		1
NA18933	YRI	1	1		1
NA18934	YRI	1	1		1
NA18935	YRI	1	1		1
NA18939	JPT	1	1		1
NA18940	JPT	1	1		1
NA18941	JPT	1	1		1
NA18942	JPT	1	1		1
NA18943	JPT	1	1		1
NA18944	JPT	1	1		1
NA18945	JPT	1	1		1
NA18946	JPT	1	1		1
NA18947	JPT	1	1		1
NA18948	JPT	1	1		1
NA18949	JPT	1	1		1
NA18950	JPT	1			1
NA18951	JPT	1	1		1
NA18952	JPT	1	1		1
NA18953	JPT	1	1		1
NA18954	JPT	1	1		1
NA18955	JPT	1	1		1
NA18956	JPT	1	1		1
NA18957	JPT	1	1		1
NA18959	JPT	1	1		1
NA18960	JPT	1	1		1
NA18961	JPT	1	1		1
NA18962	JPT	1	1		1
NA18963	JPT	1	1		1
NA18964	JPT	1	1		1
NA18965	JPT	1	1		1
NA18966	JPT	1	1		1
NA18967	JPT	1	1		1
NA18968	JPT	1	1		1
NA18969	JPT	1	1		1
NA18970	JPT	1	1		1
NA18971	JPT	1	1		1
NA18972	JPT	1	1		1
NA18973	JPT	1	1		1
NA18974	JPT	1	1		1
NA18975	JPT	1	1		1
NA18976	JPT	1	1		1
NA18977	JPT	1	1		1
NA18978	JPT	1	1		1
NA18979	JPT	1	1		1
NA18980	JPT	1	1		1
NA18981	JPT	1	1		1
NA18982	JPT	1			1
NA18983	JPT	1			1
NA18984	JPT	1			1
NA18985	JPT	1			1
NA18986	JPT	1			1
NA18987	JPT	1	1		1
NA18988	JPT	1			1
NA18989	JPT	1			1
NA18990	JPT	1	1		1
NA18991	JPT	1	1		1
NA18992	JPT	1	1		1
NA18993	JPT	1	1		1
NA18994	JPT	1	1		1
NA18995	JPT	1	1		1
NA18997	JPT	1	1		1
NA18998	JPT	1	1		1
NA18999	JPT	1	1		1
NA19000	JPT	1	1		1
NA19001	JPT	1	1		1
NA19002	JPT	1	1		1
NA19003	JPT	1	1		1
NA19004	JPT	1			1
NA19005	JPT	1	1		1
NA19006	JPT				
NA19007	JPT	1	1		1
NA19009	JPT	1	1		1
NA19010	JPT	1	1		1
NA19011	JPT				
NA19012	JPT	1	1		1
NA19017	LWK				
NA19019	LWK				
NA19020	LWK	1			1
NA19023	LWK				
NA19024	LWK				
NA19025	LWK				
NA19026	LWK				
NA19027	LWK	1	1		1
NA19028	LWK	1	1		1
NA19030	LWK				
NA19031	LWK	1	1		1
NA19035	LWK	1	1		1
NA19036	LWK	1	1		1
NA19037	LWK				
NA19038	LWK	1	1		1
NA19041	LWK	1	1		1
NA19042	LWK				
NA19043	LWK				
NA19044	LWK	1	1		1
NA19046	LWK	1	1		1
NA19054	JPT	1	1		1
NA19055	JPT	1	1		1
NA19056	JPT	1	1		1
NA19057	JPT	1	1		1
NA19058	JPT	1	1		1
NA19059	JPT	1	1		
NA19060	JPT	1	1		1
NA19062	JPT	1	1		1
NA19063	JPT	1	1		1
NA19064	JPT	1	1		1
NA19065	JPT	1	1		1
NA19066	JPT	1	1		1
NA19067	JPT	1	1		1
NA19068	JPT	1	1		1
NA19070	JPT	1	1		1
NA19072	JPT	1	1		1
NA19074	JPT	1	1		1
NA19075	JPT	1	1		1
NA19076	JPT	1	1		1
NA19077	JPT	1	1		1
NA19078	JPT	1	1		1
NA19079	JPT	1	1		1
NA19080	JPT	1	1		1
NA19081	JPT	1	1		1
NA19082	JPT	1	1		1
NA19083	JPT	1	1		1
NA19084	JPT	1	1		1
NA19085	JPT	1	1		1
NA19086	JPT	1	1		1
NA19087	JPT	1	1		1
NA19088	JPT	1	1		1
NA19089	JPT				
NA19090	JPT				
NA19091	JPT				
NA19092	YRI	1	1		1
NA19093	YRI	1	1		1
NA19094	YRI	1	1		
NA19095	YRI	1	1		1
NA19096	YRI	1	1		1
NA19097	YRI	1	1		1
NA19098	YRI	1	1		1
NA19099	YRI	1	1		1
NA19100	YRI	1	1		
NA19101	YRI		1		
NA19102	YRI	1	1		1
NA19103	YRI	1	1		
NA19104	YRI				
NA19105	YRI				
NA19107	YRI	1	1		1
NA19108	YRI	1	1		1
NA19109	YRI	1	1		1
NA19113	YRI	1	1		1
NA19114	YRI	1	1		1
NA19115	YRI	1	1		1
NA19116	YRI	1	1		1
NA19117	YRI	1	1		1
NA19118	YRI	1	1		1
NA19119	YRI	1	1		1
NA19120	YRI	1	1		
NA19121	YRI	1	1		1
NA19122	YRI		1		
NA19123	YRI	1	1		1
NA19127	YRI		1		
NA19128	YRI		1		
NA19129	YRI	1	1		1
NA19130	YRI	1	1		1
NA19131	YRI	1	1		1
NA19132	YRI	1	1		
NA19137	YRI	1	1		1
NA19138	YRI	1	1		1
NA19139	YRI	1	1		
NA19140	YRI		1		
NA19141	YRI	1	1		1
NA19142	YRI	1	1		
NA19143	YRI	1	1		1
NA19144	YRI	1	1		
NA19145	YRI	1	1		
NA19146	YRI	1	1		1
NA19147	YRI	1	1		1
NA19148	YRI	1	1		1
NA19149	YRI	1	1		1
NA19150	YRI	1	1		1
NA19151	YRI	1	1		1
NA19152	YRI	1	1		1
NA19153	YRI	1	1		1
NA19154	YRI	1	1		
NA19159	YRI	1	1		1
NA19160	YRI	1	1		1
NA19161	YRI	1	1		
NA19166	YRI				
NA19171	YRI	1	1		1
NA19172	YRI	1	1		1
NA19173	YRI	1	1		
NA19174	YRI	1	1		1
NA19175	YRI	1	1		1
NA19176	YRI		1		
NA19177	YRI	1	1		
NA19184	YRI	1	1		1
NA19185	YRI	1	1		1
NA19186	YRI	1	1		1
NA19189	YRI	1	1		1
NA19190	YRI	1	1		1
NA19191	YRI	1	1		1
NA19195	YRI				
NA19196	YRI				
NA19197	YRI	1	1		1
NA19198	YRI	1	1		1
NA19199	YRI	1	1		1
NA19200	YRI	1	1		1
NA19201	YRI	1	1		1
NA19202	YRI	1	1		
NA19203	YRI		1		
NA19204	YRI	1	1		1
NA19205	YRI	1	1		
NA19206	YRI	1	1		1
NA19207	YRI	1	1		1
NA19208	YRI	1	1		
NA19209	YRI	1	1		1
NA19210	YRI	1	1		1
NA19211	YRI	1	1		
NA19213	YRI	1	1		1
NA19214	YRI	1	1		1
NA19215	YRI	1	1		1
NA19221	YRI	1	1		
NA19222	YRI	1	1		1
NA19223	YRI	1	1		1
NA19224	YRI	1	1		1
NA19225	YRI	1	1		1
NA19226	YRI		1		
NA19235	YRI	1	1		1
NA19236	YRI	1	1		1
NA19237	YRI	1	1		1
NA19238	YRI	1	1		1
NA19239	YRI	1	1		1
NA19240	YRI	1	1		1
NA19247	YRI	1	1		1
NA19248	YRI	1	1		1
NA19249	YRI	1	1		1
NA19252	YRI	1	1		1
NA19254	YRI				
NA19256	YRI	1	1		1
NA19257	YRI	1	1		1
NA19258	YRI	1	1		1
NA19307	LWK	1	1		1
NA19308	LWK	1	1		1
NA19309	LWK	1	1		1
NA19310	LWK	1	1		1
NA19311	LWK	1	1		1
NA19312	LWK	1			1
NA19313	LWK	1	1		1
NA19314	LWK	1	1		1
NA19315	LWK	1	1		1
NA19316	LWK	1	1		1
NA19317	LWK	1	1		1
NA19318	LWK	1	1		1
NA19319	LWK	1	1		1
NA19320	LWK				
NA19321	LWK	1	1		1
NA19323	LWK				
NA19324	LWK	1	1		1
NA19327	LWK	1	1		1
NA19328	LWK	1	1		1
NA19331	LWK	1			1
NA19332	LWK	1	1		1
NA19334	LWK	1	1		1
NA19338	LWK	1			1
NA19346	LWK	1	1		1
NA19347	LWK	1	1		1
NA19350	LWK	1	1		1
NA19351	LWK	1			1
NA19352	LWK	1	1		1
NA19355	LWK	1			1
NA19359	LWK	1	1		1
NA19360	LWK	1	1		1
NA19371	LWK	1	1		1
NA19372	LWK	1	1		1
NA19373	LWK	1	1		1
NA19374	LWK	1	1		1
NA19375	LWK	1	1		1
NA19376	LWK	1	1		1
NA19377	LWK	1	1		1
NA19378	LWK				
NA19379	LWK	1	1		1
NA19380	LWK	1	1		1
NA19381	LWK	1	1		1
NA19382	LWK	1	1		1
NA19383	LWK	1	1		1
NA19384	LWK	1	1		1
NA19385	LWK	1	1		1
NA19390	LWK	1	1		1
NA19391	LWK	1	1		1
NA19393	LWK	1	1		1
NA19394	LWK	1	1		1
NA19395	LWK	1			1
NA19396	LWK	1	1		1
NA19397	LWK	1	1		1
NA19398	LWK	1	1		1
NA19399	LWK	1	1		1
NA19401	LWK	1			1
NA19403	LWK	1	1		1
NA19404	LWK	1	1		1
NA19428	LWK	1	1		1
NA19429	LWK	1	1		1
NA19430	LWK	1	1		1
NA19431	LWK	1	1		1
NA19432	LWK				
NA19434	LWK	1	1		1
NA19435	LWK	1	1		1
NA19436	LWK	1	1		1
NA19437	LWK	1	1		1
NA19438	LWK	1	1		1
NA19439	LWK	1	1		
NA19440	LWK	1	1		1
NA19443	LWK	1	1		1
NA19444	LWK	1	1		1
NA19445	LWK	1	1		1
NA19446	LWK	1	1		1
NA19448	LWK	1	1		1
NA19449	LWK	1	1		1
NA19451	LWK	1	1		1
NA19452	LWK	1	1		1
NA19453	LWK	1			1
NA19454	LWK				
NA19455	LWK	1	1		1
NA19456	LWK	1	1		1
NA19457	LWK	1	1		1
NA19461	LWK	1			1
NA19462	LWK	1	1		1
NA19463	LWK	1	1		1
NA19466	LWK	1	1		1
NA19467	LWK	1	1		1
NA19468	LWK	1	1		1
NA19469	LWK	1	1		1
NA19470	LWK	1	1		1
NA19471	LWK	1	1		1
NA19472	LWK	1	1		1
NA19473	LWK	1	1		1
NA19474	LWK	1	1		1
NA19475	LWK				
NA19625	ASW	1	1		1
NA19648	MXL	1	1		1
NA19649	MXL	1	1		1
NA19650	MXL	1	1		1
NA19651	MXL	1	1		1
NA19652	MXL	1	1		1
NA19653	MXL	1	1		1
NA19654	MXL	1	1		1
NA19655	MXL	1	1		1
NA19656	MXL	1	1		1
NA19657	MXL	1	1		1
NA19658	MXL	1	1		1
NA19659	MXL	1	1		1
NA19660	MXL	1	1		1
NA19661	MXL	1	1		1
NA19662	MXL	1	1		1
NA19663	MXL	1	1		1
NA19664	MXL	1	1		1
NA19665	MXL	1	1		1
NA19669	MXL	1	1		1
NA19670	MXL	1	1		1
NA19671	MXL	1	1		1
NA19672	MXL	1			1
NA19674	MXL				
NA19675	MXL	1	1		1
NA19676	MXL	1	1		1
NA19677	MXL	1	1		1
NA19678	MXL	1	1		1
NA19679	MXL	1	1		1
NA19680	MXL	1	1		1
NA19681	MXL	1	1		1
NA19682	MXL	1	1		1
NA19683	MXL	1	1		1
NA19684	MXL	1	1		1
NA19685	MXL	1	1		1
NA19686	MXL	1	1		1
NA19700	ASW	1	1		1
NA19701	ASW	1	1		1
NA19702	ASW	1	1		1
NA19703	ASW	1	1		1
NA19704	ASW	1	1		1
NA19705	ASW	1	1		1
NA19707	ASW	1	1		1
NA19708	ASW	1	1		1
NA19711	ASW	1	1		1
NA19712	ASW	1	1		1
NA19713	ASW	1	1		1
NA19714	ASW	1	1		1
NA19716	MXL	1	1		1
NA19717	MXL	1	1		1
NA19718	MXL	1	1		1
NA19719	MXL	1	1		1
NA19720	MXL	1	1		1
NA19721	MXL	1	1		1
NA19722	MXL	1	1		1
NA19723	MXL	1	1		1
NA19724	MXL	1	1		1
NA19725	MXL	1	1		1
NA19726	MXL	1	1		1
NA19727	MXL	1	1		1
NA19728	MXL	1	1		1
NA19729	MXL	1	1		1
NA19730	MXL	1	1		1
NA19731	MXL	1	1		1
NA19732	MXL	1	1		1
NA19733	MXL	1	1		1
NA19734	MXL	1			1
NA19735	MXL	1			1
NA19737	MXL	1			1
NA19738	MXL	1			1
NA19740	MXL	1			1
NA19741	MXL	1			1
NA19742	MXL				
NA19746	MXL	1	1		1
NA19747	MXL	1	1		1
NA19748	MXL	1	1		1
NA19749	MXL	1	1		1
NA19750	MXL	1	1		1
NA19751	MXL	1	1		1
NA19752	MXL	1			1
NA19753	MXL	1			1
NA19754	MXL			1	
NA19755	MXL	1	1		1
NA19756	MXL	1	1		1
NA19757	MXL	1	1		1
NA19758	MXL	1	1		1
NA19759	MXL	1	1		1
NA19760	MXL	1	1		1
NA19761	MXL	1	1		1
NA19762	MXL	1	1		1
NA19763	MXL	1	1		1
NA19764	MXL	1			1
NA19766	MXL				
NA19770	MXL	1	1		1
NA19771	MXL	1	1		1
NA19772	MXL	1	1		1
NA19773	MXL	1	1		1
NA19774	MXL	1	1		1
NA19775	MXL	1	1		1
NA19776	MXL	1	1		1
NA19777	MXL	1	1		1
NA19778	MXL	1	1		1
NA19779	MXL	1	1		1
NA19780	MXL	1	1		1
NA19781	MXL	1	1		1
NA19782	MXL	1	1		1
NA19783	MXL	1	1		1
NA19784	MXL	1	1		1
NA19785	MXL	1	1		1
NA19786	MXL	1	1		1
NA19787	MXL	1	1		1
NA19788	MXL	1	1		1
NA19789	MXL	1	1		1
NA19790	MXL	1	1		1
NA19792	MXL			1	
NA19794	MXL	1	1		1
NA19795	MXL	1	1		1
NA19796	MXL	1	1		1
NA19797	MXL			1	
NA19798	MXL			1	
NA19818	ASW	1	1		1
NA19819	ASW	1	1		1
NA19828	ASW	1	1		1
NA19834	ASW	1	1		1
NA19835	ASW	1	1		1
NA19836	ASW	1	1		1
NA19900	ASW	1	1		1
NA19901	ASW	1	1		1
NA19902	ASW	1	1		1
NA19904	ASW	1	1		1
NA19905	ASW			1	
NA19908	ASW	1	1		1
NA19909	ASW	1	1		1
NA19913	ASW			1	
NA19914	ASW	1	1		1
NA19915	ASW	1	1		1
NA19916	ASW	1	1		1
NA19917	ASW	1	1		1
NA19918	ASW	1	1		1
NA19919	ASW	1	1		1
NA19920	ASW	1	1		1
NA19921	ASW	1	1		1
NA19922	ASW	1			1
NA19923	ASW	1			1
NA19924	ASW				
NA19982	ASW	1	1		1
NA19983	ASW	1	1		1
NA19984	ASW	1			1
NA19985	ASW	1	1		1
NA20126	ASW	1	1		1
NA20127	ASW	1	1		1
NA20128	ASW	1	1		1
NA20129	ASW	1	1		1
NA20274	ASW				
NA20276	ASW	1	1		1
NA20277	ASW	1	1		1
NA20278	ASW	1	1		1
NA20279	ASW	1	1		1
NA20281	ASW	1	1		1
NA20282	ASW	1	1		1
NA20284	ASW	1	1		1
NA20285	ASW				
NA20287	ASW	1	1		1
NA20288	ASW	1	1		1
NA20289	ASW	1	1		1
NA20290	ASW	1	1		1
NA20291	ASW	1	1		1
NA20292	ASW	1	1		1
NA20294	ASW	1	1		1
NA20295	ASW	1	1		1
NA20296	ASW	1	1		1
NA20297	ASW	1	1		1
NA20298	ASW	1			1
NA20299	ASW	1	1		1
NA20300	ASW	1	1		1
NA20301	ASW		1		
NA20302	ASW	1	1		1
NA20312	ASW				
NA20313	ASW	1			1
NA20314	ASW	1	1		1
NA20316	ASW	1	1		1
NA20317	ASW	1	1		1
NA20318	ASW			1	
NA20319	ASW	1	1		1
NA20320	ASW			1	
NA20321	ASW			1	
NA20322	ASW	1	1		1
NA20332	ASW	1	1		1
NA20333	ASW	1	1		1
NA20334	ASW	1	1		1
NA20335	ASW	1	1		1
NA20336	ASW	1	1		1
NA20337	ASW	1	1		1
NA20339	ASW	1			1
NA20340	ASW	1	1		1
NA20341	ASW	1	1		1
NA20342	ASW	1	1		1
NA20343	ASW	1	1		1
NA20344	ASW	1	1		1
NA20345	ASW	1	1		1
NA20346	ASW	1	1		1
NA20347	ASW	1	1		1
NA20348	ASW	1	1		1
NA20349	ASW		1		
NA20350	ASW	1	1		1
NA20351	ASW	1			1
NA20355	ASW			1	
NA20356	ASW	1	1		1
NA20357	ASW	1	1		1
NA20358	ASW	1	1		1
NA20359	ASW	1	1		1
NA20360	ASW	1	1		1
NA20361	ASW			1	
NA20362	ASW			1	
NA20363	ASW	1	1		1
NA20364	ASW	1	1		1
NA20412	ASW	1			1
NA20413	ASW				
NA20414	ASW	1			1
NA20502	TSI	1	1		1
NA20503	TSI	1			1
NA20504	TSI	1	1		1
NA20505	TSI	1	1		1
NA20506	TSI	1	1		1
NA20507	TSI	1			1
NA20508	TSI	1	1		1
NA20509	TSI	1	1		1
NA20510	TSI	1	1		1
NA20511	TSI				
NA20512	TSI	1	1		1
NA20513	TSI	1			1
NA20514	TSI	1			1
NA20515	TSI	1	1		1
NA20516	TSI	1	1		1
NA20517	TSI	1	1		1
NA20518	TSI	1	1		1
NA20519	TSI	1	1		1
NA20520	TSI	1	1		1
NA20521	TSI	1	1		1
NA20522	TSI	1	1		1
NA20524	TSI	1	1		1
NA20525	TSI	1	1		1
NA20526	TSI	1			1
NA20527	TSI	1	1		1
NA20528	TSI	1	1		1
NA20529	TSI	1	1		1
NA20530	TSI	1	1		1
NA20531	TSI	1	1		1
NA20532	TSI	1			1
NA20533	TSI	1			1
NA20534	TSI	1	1		1
NA20535	TSI	1	1		1
NA20536	TSI	1			1
NA20537	TSI	1			1
NA20538	TSI	1	1		1
NA20539	TSI	1	1		1
NA20540	TSI	1	1		1
NA20541	TSI	1	1		1
NA20542	TSI	1	1		1
NA20543	TSI	1	1		1
NA20544	TSI	1	1		1
NA20581	TSI	1	1		1
NA20582	TSI	1	1		1
NA20585	TSI	1	1		1
NA20586	TSI	1	1		1
NA20587	TSI				
NA20588	TSI	1	1		1
NA20589	TSI	1	1		1
NA20752	TSI	1	1		1
NA20753	TSI	1	1		1
NA20754	TSI	1	1		1
NA20755	TSI	1	1		1
NA20756	TSI	1	1		1
NA20757	TSI	1	1		1
NA20758	TSI	1	1		1
NA20759	TSI	1	1		1
NA20760	TSI	1	1		1
NA20761	TSI	1	1		1
NA20762	TSI				
NA20763	TSI				
NA20764	TSI				
NA20765	TSI	1	1		1
NA20766	TSI	1	1		1
NA20767	TSI				
NA20768	TSI	1	1		1
NA20769	TSI	1	1		1
NA20770	TSI	1	1		1
NA20771	TSI	1	1		1
NA20772	TSI	1	1		1
NA20773	TSI	1	1		1
NA20774	TSI	1	1		1
NA20775	TSI	1	1		1
NA20778	TSI	1	1		1
NA20783	TSI	1	1		1
NA20785	TSI	1	1		1
NA20786	TSI	1	1		1
NA20787	TSI	1	1		
NA20790	TSI	1	1		1
NA20792	TSI	1	1		1
NA20795	TSI	1	1		1
NA20796	TSI	1	1		1
NA20797	TSI	1	1		1
NA20798	TSI	1	1		1
NA20799	TSI	1	1		1
NA20800	TSI	1	1		1
NA20801	TSI	1	1		1
NA20802	TSI	1	1		1
NA20803	TSI	1	1		1
NA20804	TSI	1	1		1
NA20805	TSI	1	1		1
NA20806	TSI	1	1		1
NA20807	TSI	1	1		1
NA20808	TSI	1	1		1
NA20809	TSI	1	1		1
NA20810	TSI	1	1		1
NA20811	TSI	1	1		1
NA20812	TSI	1	1		1
NA20813	TSI	1	1		1
NA20814	TSI	1			1
NA20815	TSI	1	1		1
NA20816	TSI	1	1		1
NA20818	TSI	1	1		1
NA20819	TSI	1	1		1
NA20821	TSI				
NA20822	TSI				
NA20826	TSI	1	1		1
NA20827	TSI				
NA20828	TSI	1	1		1
NA20829	TSI				
NA20831	TSI				
NA20832	TSI				
NA20845	GIH	1	1		1
NA20846	GIH	1	1		1
NA20847	GIH	1	1		1
NA20849	GIH	1	1		1
NA20850	GIH	1	1		1
NA20851	GIH	1	1		1
NA20852	GIH	1	1		1
NA20853	GIH	1	1		1
NA20854	GIH	1	1		1
NA20856	GIH	1	1		1
NA20858	GIH	1	1		1
NA20859	GIH	1	1		1
NA20861	GIH	1	1		1
NA20862	GIH	1	1		1
NA20863	GIH	1			1
NA20864	GIH	1			1
NA20866	GIH	1	1		1
NA20867	GIH	1			1
NA20868	GIH	1			1
NA20869	GIH	1	1		1
NA20870	GIH	1	1		1
NA20871	GIH	1	1		1
NA20872	GIH	1	1		1
NA20873	GIH	1	1		1
NA20874	GIH	1	1		1
NA20875	GIH	1	1		1
NA20876	GIH	1	1		1
NA20877	GIH	1	1		1
NA20878	GIH	1			1
NA20879	GIH		1		
NA20881	GIH	1	1		1
NA20882	GIH	1	1		1
NA20883	GIH	1	1		1
NA20884	GIH	1	1		1
NA20885	GIH	1	1		1
NA20886	GIH	1	1		1
NA20887	GIH	1	1		1
NA20888	GIH	1	1		1
NA20889	GIH	1	1		1
NA20890	GIH	1	1		1
NA20891	GIH	1	1		1
NA20892	GIH	1	1		1
NA20893	GIH	1			1
NA20894	GIH	1	1		1
NA20895	GIH	1	1		1
NA20896	GIH	1	1		1
NA20897	GIH	1	1		1
NA20898	GIH	1	1		1
NA20899	GIH	1	1		1
NA20900	GIH		1		
NA20901	GIH	1	1		1
NA20902	GIH	1	1		1
NA20903	GIH	1	1		1
NA20904	GIH	1	1		1
NA20905	GIH	1			1
NA20906	GIH	1	1		1
NA20907	GIH		1		
NA20908	GIH	1	1		1
NA20909	GIH		1		
NA20910	GIH	1	1		1
NA20911	GIH	1	1		1
NA21086	GIH	1	1		1
NA21087	GIH	1			1
NA21088	GIH	1	1		1
NA21089	GIH	1	1		1
NA21090	GIH	1	1		1
NA21091	GIH	1	1		1
NA21092	GIH	1	1		1
NA21093	GIH	1			1
NA21094	GIH	1	1		1
NA21095	GIH	1			1
NA21097	GIH	1	1		1
NA21098	GIH	1	1		1
NA21099	GIH	1	1		1
NA21100	GIH	1	1		1
NA21101	GIH	1	1		1
NA21102	GIH	1	1		1
NA21103	GIH	1	1		1
NA21104	GIH	1	1		1
NA21105	GIH	1	1		1
NA21106	GIH	1	1		1
NA21107	GIH	1	1		1
NA21108	GIH	1	1		1
NA21109	GIH	1	1		1
NA21110	GIH	1			1
NA21111	GIH	1	1		1
NA21112	GIH	1	1		1
NA21113	GIH	1	1		1
NA21114	GIH	1			1
NA21115	GIH	1	1		1
NA21116	GIH	1	1		1
NA21117	GIH	1	1		1
NA21118	GIH	1	1		1
NA21119	GIH	1	1		1
NA21120	GIH	1			1
NA21121	GIH	1	1		1
NA21122	GIH	1			1
NA21123	GIH	1	1		1
NA21124	GIH				
NA21125	GIH	1	1		1
NA21126	GIH				
NA21127	GIH				
NA21128	GIH				
NA21129	GIH				
NA21130	GIH				
NA21133	GIH				
NA21134	GIH				
NA21135	GIH				
NA21137	GIH	1	1		1
NA21141	GIH	1	1		1
NA21142	GIH	1	1		1
NA21143	GIH	1	1		1
NA21144	GIH	1	1		1